#
# The Tor Project
#
# URL: https://metrics.torproject.org/networksize.csv?start=2010-01-01&end=2021-11-27
#
date,relays,bridges
2010-01-01,1528,365
2010-01-02,1561,344
2010-01-03,1590,381
2010-01-04,1588,317
2010-01-05,1567,397
2010-01-06,1577,418
2010-01-07,1567,410
2010-01-08,1563,392
2010-01-09,1608,371
2010-01-10,1630,424
2010-01-11,1624,403
2010-01-12,1588,353
2010-01-13,1615,435
2010-01-14,1614,413
2010-01-15,1504,413
2010-01-16,1584,430
2010-01-17,1606,445
2010-01-18,1594,408
2010-01-19,1596,447
2010-01-20,1546,451
2010-01-21,1571,432
2010-01-22,1596,443
2010-01-23,1630,452
2010-01-24,1584,449
2010-01-25,682,386
2010-01-26,1113,439
2010-01-27,1558,457
2010-01-28,1589,459
2010-01-29,1594,453
2010-01-30,1604,456
2010-01-31,1600,478
2010-02-01,1583,464
2010-02-02,1596,472
2010-02-03,1599,468
2010-02-04,1623,464
2010-02-05,1638,467
2010-02-06,1648,471
2010-02-07,1662,470
2010-02-08,1632,479
2010-02-09,1622,478
2010-02-10,1656,481
2010-02-11,1644,492
2010-02-12,1646,500
2010-02-13,1683,502
2010-02-14,1695,503
2010-02-15,1648,501
2010-02-16,1641,499
2010-02-17,1659,510
2010-02-18,1666,499
2010-02-19,1655,499
2010-02-20,1680,497
2010-02-21,1694,501
2010-02-22,1667,501
2010-02-23,1667,500
2010-02-24,1659,497
2010-02-25,1647,501
2010-02-26,1641,504
2010-02-27,1681,507
2010-02-28,1683,496
2010-03-01,1628,487
2010-03-02,1643,490
2010-03-03,1649,487
2010-03-04,1664,487
2010-03-05,1660,473
2010-03-06,1670,482
2010-03-07,1680,478
2010-03-08,1450,476
2010-03-09,1577,461
2010-03-10,1628,468
2010-03-11,1630,306
2010-03-12,1612,485
2010-03-13,1647,482
2010-03-14,1679,489
2010-03-15,1639,475
2010-03-16,1626,464
2010-03-17,1616,435
2010-03-18,1616,462
2010-03-19,1636,468
2010-03-20,1658,473
2010-03-21,1667,490
2010-03-22,1632,471
2010-03-23,1653,475
2010-03-24,1660,472
2010-03-25,1658,476
2010-03-26,1672,477
2010-03-27,1702,484
2010-03-28,1707,488
2010-03-29,1655,485
2010-03-30,1684,486
2010-03-31,1676,473
2010-04-01,1650,472
2010-04-02,1644,487
2010-04-03,1679,486
2010-04-04,1653,477
2010-04-05,1633,478
2010-04-06,1657,476
2010-04-07,1662,482
2010-04-08,1671,488
2010-04-09,1661,483
2010-04-10,1661,493
2010-04-11,1494,497
2010-04-12,1391,482
2010-04-13,1519,480
2010-04-14,1484,479
2010-04-15,1500,478
2010-04-16,1471,477
2010-04-17,1464,493
2010-04-18,1482,494
2010-04-19,1398,486
2010-04-20,1380,433
2010-04-21,1405,489
2010-04-22,1405,481
2010-04-23,1390,487
2010-04-24,1417,506
2010-04-25,1413,503
2010-04-26,1390,483
2010-04-27,1401,481
2010-04-28,1391,480
2010-04-29,1403,488
2010-04-30,1400,489
2010-05-01,1410,481
2010-05-02,1431,486
2010-05-03,1393,477
2010-05-04,1374,480
2010-05-05,1420,484
2010-05-06,1479,477
2010-05-07,1498,482
2010-05-08,1547,484
2010-05-09,1574,483
2010-05-10,1542,477
2010-05-11,1541,480
2010-05-12,1554,473
2010-05-13,1576,469
2010-05-14,1572,470
2010-05-15,1586,483
2010-05-16,1585,488
2010-05-17,1578,477
2010-05-18,1600,484
2010-05-19,1592,477
2010-05-20,1598,483
2010-05-21,1613,484
2010-05-22,1634,490
2010-05-23,1642,493
2010-05-24,1655,484
2010-05-25,1650,484
2010-05-26,1648,472
2010-05-27,1660,469
2010-05-28,1648,477
2010-05-29,1671,493
2010-05-30,1696,496
2010-05-31,1679,482
2010-06-01,1671,483
2010-06-02,1687,471
2010-06-03,1702,470
2010-06-04,1684,464
2010-06-05,1682,472
2010-06-06,1691,472
2010-06-07,1680,465
2010-06-08,1667,480
2010-06-09,1681,465
2010-06-10,1663,470
2010-06-11,1666,475
2010-06-12,1675,485
2010-06-13,1705,491
2010-06-14,1678,474
2010-06-15,1686,469
2010-06-16,1692,475
2010-06-17,1677,467
2010-06-18,1681,480
2010-06-19,1716,481
2010-06-20,1733,491
2010-06-21,1691,485
2010-06-22,1692,487
2010-06-23,1716,478
2010-06-24,1731,480
2010-06-25,1740,489
2010-06-26,2064,493
2010-06-27,2344,496
2010-06-28,1985,494
2010-06-29,1726,492
2010-06-30,1718,487
2010-07-01,1715,475
2010-07-02,1728,487
2010-07-03,1745,479
2010-07-04,1750,486
2010-07-05,1724,472
2010-07-06,1720,491
2010-07-07,1718,481
2010-07-08,1719,490
2010-07-09,1706,484
2010-07-10,1708,491
2010-07-11,1706,496
2010-07-12,1711,468
2010-07-13,1703,462
2010-07-14,1716,449
2010-07-15,1709,
2010-07-16,1693,
2010-07-17,1713,
2010-07-18,1732,
2010-07-19,1725,
2010-07-20,1742,
2010-07-21,1765,
2010-07-22,1744,
2010-07-23,1743,
2010-07-24,1768,
2010-07-25,1777,
2010-07-26,1783,
2010-07-27,1754,493
2010-07-28,1767,472
2010-07-29,1767,469
2010-07-30,1761,454
2010-07-31,1793,429
2010-08-01,1808,480
2010-08-02,1816,476
2010-08-03,1801,468
2010-08-04,1794,471
2010-08-05,1818,469
2010-08-06,1828,469
2010-08-07,1845,474
2010-08-08,1860,475
2010-08-09,1842,475
2010-08-10,1827,477
2010-08-11,1832,478
2010-08-12,1824,474
2010-08-13,1815,478
2010-08-14,1840,488
2010-08-15,1871,484
2010-08-16,1868,486
2010-08-17,1885,475
2010-08-18,1878,483
2010-08-19,1871,493
2010-08-20,1890,473
2010-08-21,1884,487
2010-08-22,1911,491
2010-08-23,1916,485
2010-08-24,1910,489
2010-08-25,1886,487
2010-08-26,1903,497
2010-08-27,1925,483
2010-08-28,1954,509
2010-08-29,1951,504
2010-08-30,1946,494
2010-08-31,1971,494
2010-09-01,1977,481
2010-09-02,1933,486
2010-09-03,1947,498
2010-09-04,1965,505
2010-09-05,1983,503
2010-09-06,1977,495
2010-09-07,1990,489
2010-09-08,1977,489
2010-09-09,1979,489
2010-09-10,1962,498
2010-09-11,2026,501
2010-09-12,2023,512
2010-09-13,1990,490
2010-09-14,1982,487
2010-09-15,1974,478
2010-09-16,1940,482
2010-09-17,1960,497
2010-09-18,2008,495
2010-09-19,2020,503
2010-09-20,1986,506
2010-09-21,1985,496
2010-09-22,1973,494
2010-09-23,2019,494
2010-09-24,2008,488
2010-09-25,2004,492
2010-09-26,2041,505
2010-09-27,2011,485
2010-09-28,1986,490
2010-09-29,1992,481
2010-09-30,1973,478
2010-10-01,1963,490
2010-10-02,2027,492
2010-10-03,2147,497
2010-10-04,1992,487
2010-10-05,1968,491
2010-10-06,1995,491
2010-10-07,2011,498
2010-10-08,2011,487
2010-10-09,2062,501
2010-10-10,2043,509
2010-10-11,2001,504
2010-10-12,2008,498
2010-10-13,1991,497
2010-10-14,1981,499
2010-10-15,1990,507
2010-10-16,2028,511
2010-10-17,2058,505
2010-10-18,2002,501
2010-10-19,2016,492
2010-10-20,2006,500
2010-10-21,1989,491
2010-10-22,1972,498
2010-10-23,1955,508
2010-10-24,1955,503
2010-10-25,1926,491
2010-10-26,1913,497
2010-10-27,1915,479
2010-10-28,1920,475
2010-10-29,1910,494
2010-10-30,1917,496
2010-10-31,1928,490
2010-11-01,1953,487
2010-11-02,1891,485
2010-11-03,1877,484
2010-11-04,1859,480
2010-11-05,1867,487
2010-11-06,1896,489
2010-11-07,1908,501
2010-11-08,1863,486
2010-11-09,1854,486
2010-11-10,1860,487
2010-11-11,1878,499
2010-11-12,1893,492
2010-11-13,1908,497
2010-11-14,1913,499
2010-11-15,1891,487
2010-11-16,1863,490
2010-11-17,1855,483
2010-11-18,1808,472
2010-11-19,1778,460
2010-11-20,1772,468
2010-11-21,1761,461
2010-11-22,1729,453
2010-11-23,1735,452
2010-11-24,1736,445
2010-11-25,1716,459
2010-11-26,1716,453
2010-11-27,1762,467
2010-11-28,1785,485
2010-11-29,1760,477
2010-11-30,1771,482
2010-12-01,1780,482
2010-12-02,1786,477
2010-12-03,1814,478
2010-12-04,1855,491
2010-12-05,1897,495
2010-12-06,1895,486
2010-12-07,1912,491
2010-12-08,1937,489
2010-12-09,1930,494
2010-12-10,1946,493
2010-12-11,2009,504
2010-12-12,2050,513
2010-12-13,2003,499
2010-12-14,2019,509
2010-12-15,2033,511
2010-12-16,2000,497
2010-12-17,1985,497
2010-12-18,2011,518
2010-12-19,2051,525
2010-12-20,1968,510
2010-12-21,1973,504
2010-12-22,1983,512
2010-12-23,1982,518
2010-12-24,1972,504
2010-12-25,1963,498
2010-12-26,1978,494
2010-12-27,2007,501
2010-12-28,2030,504
2010-12-29,2033,497
2010-12-30,2047,489
2010-12-31,2048,507
2011-01-01,2059,509
2011-01-02,2096,531
2011-01-03,2106,529
2011-01-04,2114,536
2011-01-05,2130,537
2011-01-06,2145,537
2011-01-07,2128,540
2011-01-08,2171,548
2011-01-09,2181,559
2011-01-10,2125,535
2011-01-11,2131,539
2011-01-12,2104,528
2011-01-13,2090,529
2011-01-14,2108,519
2011-01-15,2127,557
2011-01-16,2145,456
2011-01-17,2138,387
2011-01-18,2133,551
2011-01-19,2129,559
2011-01-20,2160,553
2011-01-21,2162,565
2011-01-22,2195,575
2011-01-23,2172,580
2011-01-24,2137,555
2011-01-25,2106,554
2011-01-26,2122,562
2011-01-27,2120,457
2011-01-28,2210,545
2011-01-29,2350,733
2011-01-30,2421,774
2011-01-31,2396,711
2011-02-01,2388,707
2011-02-02,2391,707
2011-02-03,2417,707
2011-02-04,2429,707
2011-02-05,2450,707
2011-02-06,2449,707
2011-02-07,2377,707
2011-02-08,2362,707
2011-02-09,2363,707
2011-02-10,2344,707
2011-02-11,2351,707
2011-02-12,2391,707
2011-02-13,2414,707
2011-02-14,2358,707
2011-02-15,2369,707
2011-02-16,2389,343
2011-02-17,2402,682
2011-02-18,2386,691
2011-02-19,2428,699
2011-02-20,2442,709
2011-02-21,2431,696
2011-02-22,2423,696
2011-02-23,2414,677
2011-02-24,2403,680
2011-02-25,2400,673
2011-02-26,2429,677
2011-02-27,2409,681
2011-02-28,2389,663
2011-03-01,2373,676
2011-03-02,2386,682
2011-03-03,2393,677
2011-03-04,2402,658
2011-03-05,2424,654
2011-03-06,2328,674
2011-03-07,2158,650
2011-03-08,2390,649
2011-03-09,2372,644
2011-03-10,2365,639
2011-03-11,2374,650
2011-03-12,2428,665
2011-03-13,2441,679
2011-03-14,2398,658
2011-03-15,2389,653
2011-03-16,2366,660
2011-03-17,2373,658
2011-03-18,2386,651
2011-03-19,2421,667
2011-03-20,2413,665
2011-03-21,2375,653
2011-03-22,2371,664
2011-03-23,2366,648
2011-03-24,2399,647
2011-03-25,2390,646
2011-03-26,2398,662
2011-03-27,2426,660
2011-03-28,2385,649
2011-03-29,2383,659
2011-03-30,2360,646
2011-03-31,2350,655
2011-04-01,2366,647
2011-04-02,2395,647
2011-04-03,2422,646
2011-04-04,2393,641
2011-04-05,2370,627
2011-04-06,2397,651
2011-04-07,2373,645
2011-04-08,2378,638
2011-04-09,2410,646
2011-04-10,2424,641
2011-04-11,2372,638
2011-04-12,2377,635
2011-04-13,2391,629
2011-04-14,2387,626
2011-04-15,2407,616
2011-04-16,2436,638
2011-04-17,2438,637
2011-04-18,2410,623
2011-04-19,2398,621
2011-04-20,2386,620
2011-04-21,2384,618
2011-04-22,2387,616
2011-04-23,2373,612
2011-04-24,2374,609
2011-04-25,2376,607
2011-04-26,2396,620
2011-04-27,2371,540
2011-04-28,2361,617
2011-04-29,2376,618
2011-04-30,2387,618
2011-05-01,2394,622
2011-05-02,2406,609
2011-05-03,2376,597
2011-05-04,2370,606
2011-05-05,2359,609
2011-05-06,2378,603
2011-05-07,2416,613
2011-05-08,2416,609
2011-05-09,2376,613
2011-05-10,2374,614
2011-05-11,2365,605
2011-05-12,2371,604
2011-05-13,2365,609
2011-05-14,2387,627
2011-05-15,2422,630
2011-05-16,2376,609
2011-05-17,2351,606
2011-05-18,2345,610
2011-05-19,2353,623
2011-05-20,2381,627
2011-05-21,2380,633
2011-05-22,2366,642
2011-05-23,2340,627
2011-05-24,2327,634
2011-05-25,2304,632
2011-05-26,2302,646
2011-05-27,2301,616
2011-05-28,2320,615
2011-05-29,2314,619
2011-05-30,2268,620
2011-05-31,2271,620
2011-06-01,2345,640
2011-06-02,2499,660
2011-06-03,2520,661
2011-06-04,2556,671
2011-06-05,2581,673
2011-06-06,2570,672
2011-06-07,2586,673
2011-06-08,2586,690
2011-06-09,2617,680
2011-06-10,2609,683
2011-06-11,2603,673
2011-06-12,2605,679
2011-06-13,2655,676
2011-06-14,2629,673
2011-06-15,2610,671
2011-06-16,2588,662
2011-06-17,2588,653
2011-06-18,2616,663
2011-06-19,2635,676
2011-06-20,2597,674
2011-06-21,2586,671
2011-06-22,2613,680
2011-06-23,2601,563
2011-06-24,2598,676
2011-06-25,2616,669
2011-06-26,2611,683
2011-06-27,2568,659
2011-06-28,2567,666
2011-06-29,2550,661
2011-06-30,2557,660
2011-07-01,2583,666
2011-07-02,2583,667
2011-07-03,2597,667
2011-07-04,2565,649
2011-07-05,2557,666
2011-07-06,2576,674
2011-07-07,2588,676
2011-07-08,2596,678
2011-07-09,2611,692
2011-07-10,2617,680
2011-07-11,2573,664
2011-07-12,2568,664
2011-07-13,2547,677
2011-07-14,2545,670
2011-07-15,2554,663
2011-07-16,2567,680
2011-07-17,2583,672
2011-07-18,2576,663
2011-07-19,2583,675
2011-07-20,2564,678
2011-07-21,2568,687
2011-07-22,2555,674
2011-07-23,2572,666
2011-07-24,2569,671
2011-07-25,2549,553
2011-07-26,2552,547
2011-07-27,2551,665
2011-07-28,2561,661
2011-07-29,2537,660
2011-07-30,2563,622
2011-07-31,2549,
2011-08-01,2531,
2011-08-02,2530,
2011-08-03,2524,
2011-08-04,2539,
2011-08-05,2534,
2011-08-06,2558,
2011-08-07,2554,686
2011-08-08,2548,663
2011-08-09,2538,664
2011-08-10,2519,645
2011-08-11,2505,647
2011-08-12,2508,656
2011-08-13,2523,655
2011-08-14,2549,647
2011-08-15,2541,657
2011-08-16,2542,651
2011-08-17,2544,651
2011-08-18,2532,649
2011-08-19,2531,628
2011-08-20,2537,623
2011-08-21,2519,633
2011-08-22,2497,625
2011-08-23,2473,622
2011-08-24,2471,611
2011-08-25,2493,634
2011-08-26,2493,609
2011-08-27,2514,626
2011-08-28,2495,609
2011-08-29,2490,607
2011-08-30,2488,606
2011-08-31,2512,615
2011-09-01,2504,624
2011-09-02,2508,631
2011-09-03,2515,626
2011-09-04,2507,632
2011-09-05,2492,626
2011-09-06,2492,625
2011-09-07,2476,638
2011-09-08,2466,630
2011-09-09,2477,628
2011-09-10,2487,632
2011-09-11,2513,633
2011-09-12,2473,627
2011-09-13,2474,623
2011-09-14,2485,619
2011-09-15,2495,658
2011-09-16,2490,697
2011-09-17,2515,675
2011-09-18,2508,663
2011-09-19,2479,648
2011-09-20,2481,647
2011-09-21,2504,645
2011-09-22,2490,636
2011-09-23,2489,626
2011-09-24,2509,618
2011-09-25,2516,638
2011-09-26,2508,630
2011-09-27,2500,617
2011-09-28,2484,626
2011-09-29,2462,638
2011-09-30,2477,625
2011-10-01,2511,629
2011-10-02,2500,645
2011-10-03,2456,635
2011-10-04,2452,625
2011-10-05,2473,631
2011-10-06,2443,648
2011-10-07,2442,646
2011-10-08,2462,643
2011-10-09,2483,644
2011-10-10,2460,644
2011-10-11,2437,636
2011-10-12,2437,634
2011-10-13,2389,631
2011-10-14,2348,635
2011-10-15,2360,637
2011-10-16,2367,633
2011-10-17,2324,615
2011-10-18,2315,616
2011-10-19,2335,637
2011-10-20,2333,635
2011-10-21,2319,629
2011-10-22,2338,635
2011-10-23,2382,634
2011-10-24,2354,637
2011-10-25,2371,634
2011-10-26,2383,657
2011-10-27,2390,646
2011-10-28,2369,653
2011-10-29,2352,499
2011-10-30,2367,627
2011-10-31,2366,643
2011-11-01,2385,674
2011-11-02,2387,599
2011-11-03,2397,512
2011-11-04,2378,647
2011-11-05,2365,642
2011-11-06,2379,658
2011-11-07,2355,647
2011-11-08,2342,646
2011-11-09,2319,640
2011-11-10,2318,634
2011-11-11,2323,645
2011-11-12,2343,641
2011-11-13,2355,634
2011-11-14,2360,635
2011-11-15,2383,637
2011-11-16,2408,646
2011-11-17,2371,652
2011-11-18,2397,656
2011-11-19,2407,674
2011-11-20,2414,679
2011-11-21,2376,673
2011-11-22,2393,675
2011-11-23,2419,717
2011-11-24,2397,728
2011-11-25,2358,613
2011-11-26,2419,668
2011-11-27,2436,762
2011-11-28,2392,758
2011-11-29,2377,755
2011-11-30,2390,768
2011-12-01,2404,760
2011-12-02,2392,762
2011-12-03,2416,775
2011-12-04,2445,771
2011-12-05,2442,769
2011-12-06,2425,787
2011-12-07,2425,790
2011-12-08,2420,784
2011-12-09,2424,771
2011-12-10,2449,779
2011-12-11,2469,778
2011-12-12,2446,768
2011-12-13,2432,788
2011-12-14,2430,793
2011-12-15,2428,790
2011-12-16,2447,792
2011-12-17,2450,797
2011-12-18,2470,791
2011-12-19,2435,778
2011-12-20,2416,787
2011-12-21,2413,786
2011-12-22,2435,767
2011-12-23,2436,757
2011-12-24,2425,743
2011-12-25,2412,739
2011-12-26,2412,698
2011-12-27,2432,795
2011-12-28,2427,774
2011-12-29,2430,779
2011-12-30,2452,789
2011-12-31,2435,781
2012-01-01,2454,784
2012-01-02,2499,802
2012-01-03,2520,818
2012-01-04,2528,819
2012-01-05,2516,815
2012-01-06,2515,817
2012-01-07,2315,804
2012-01-08,2435,718
2012-01-09,2433,663
2012-01-10,2452,702
2012-01-11,2327,768
2012-01-12,2461,829
2012-01-13,2524,823
2012-01-14,2562,818
2012-01-15,2577,816
2012-01-16,2560,822
2012-01-17,2475,836
2012-01-18,2594,845
2012-01-19,2587,841
2012-01-20,2638,840
2012-01-21,2689,838
2012-01-22,2705,854
2012-01-23,2557,861
2012-01-24,2575,877
2012-01-25,2584,880
2012-01-26,2586,878
2012-01-27,2627,879
2012-01-28,2651,873
2012-01-29,2665,866
2012-01-30,2631,833
2012-01-31,2628,847
2012-02-01,2668,851
2012-02-02,2682,851
2012-02-03,2701,839
2012-02-04,2761,839
2012-02-05,2804,869
2012-02-06,2770,860
2012-02-07,2744,875
2012-02-08,2749,871
2012-02-09,2766,872
2012-02-10,2776,880
2012-02-11,2839,914
2012-02-12,2880,1001
2012-02-13,2872,1046
2012-02-14,2871,1075
2012-02-15,2860,1071
2012-02-16,2872,1065
2012-02-17,2858,1070
2012-02-18,2886,1066
2012-02-19,2906,1067
2012-02-20,2878,1059
2012-02-21,2873,1078
2012-02-22,2891,1082
2012-02-23,2861,1062
2012-02-24,2861,1062
2012-02-25,2882,1068
2012-02-26,2896,1074
2012-02-27,2844,1085
2012-02-28,2865,1106
2012-02-29,2849,1090
2012-03-01,2869,1090
2012-03-02,2861,1078
2012-03-03,2887,1072
2012-03-04,2919,1077
2012-03-05,2894,1070
2012-03-06,2917,977
2012-03-07,2901,947
2012-03-08,2900,941
2012-03-09,2877,937
2012-03-10,2902,944
2012-03-11,2895,959
2012-03-12,2866,943
2012-03-13,2854,951
2012-03-14,2848,944
2012-03-15,2846,925
2012-03-16,2845,927
2012-03-17,2875,935
2012-03-18,2905,947
2012-03-19,2878,940
2012-03-20,2847,953
2012-03-21,2816,961
2012-03-22,2829,966
2012-03-23,2829,987
2012-03-24,2864,986
2012-03-25,2885,999
2012-03-26,2846,998
2012-03-27,2835,1008
2012-03-28,2833,1011
2012-03-29,2833,1007
2012-03-30,2828,1014
2012-03-31,2883,1022
2012-04-01,2909,1027
2012-04-02,2900,1025
2012-04-03,2900,1042
2012-04-04,2932,1054
2012-04-05,2927,1046
2012-04-06,2918,1047
2012-04-07,2929,1037
2012-04-08,2940,1033
2012-04-09,2935,1055
2012-04-10,2911,1061
2012-04-11,2903,1064
2012-04-12,2888,1052
2012-04-13,2905,1049
2012-04-14,2931,1044
2012-04-15,2932,1051
2012-04-16,2905,1061
2012-04-17,2875,1064
2012-04-18,2864,1069
2012-04-19,2876,1071
2012-04-20,2851,1064
2012-04-21,2872,1055
2012-04-22,2896,1070
2012-04-23,2877,1065
2012-04-24,2887,1078
2012-04-25,2904,970
2012-04-26,2910,930
2012-04-27,2906,929
2012-04-28,2927,691
2012-04-29,2920,883
2012-04-30,2927,919
2012-05-01,2977,940
2012-05-02,2977,923
2012-05-03,2973,926
2012-05-04,2972,928
2012-05-05,3008,928
2012-05-06,3017,932
2012-05-07,2970,942
2012-05-08,2937,951
2012-05-09,2951,949
2012-05-10,2956,964
2012-05-11,2946,964
2012-05-12,2970,965
2012-05-13,2985,962
2012-05-14,2963,958
2012-05-15,2945,964
2012-05-16,2961,966
2012-05-17,2981,961
2012-05-18,2924,976
2012-05-19,2899,969
2012-05-20,2911,967
2012-05-21,2867,979
2012-05-22,2861,981
2012-05-23,2869,974
2012-05-24,2864,968
2012-05-25,2869,975
2012-05-26,2889,976
2012-05-27,2883,980
2012-05-28,2888,993
2012-05-29,2870,991
2012-05-30,2875,989
2012-05-31,2882,996
2012-06-01,2900,990
2012-06-02,2899,987
2012-06-03,2923,981
2012-06-04,2932,981
2012-06-05,2934,992
2012-06-06,2941,990
2012-06-07,2932,986
2012-06-08,2924,988
2012-06-09,2920,974
2012-06-10,2944,977
2012-06-11,2941,982
2012-06-12,2943,993
2012-06-13,2930,981
2012-06-14,2909,968
2012-06-15,2915,979
2012-06-16,2945,989
2012-06-17,2953,972
2012-06-18,2946,952
2012-06-19,2941,961
2012-06-20,2952,972
2012-06-21,2949,980
2012-06-22,2958,978
2012-06-23,2966,984
2012-06-24,3013,1003
2012-06-25,2987,994
2012-06-26,2981,1000
2012-06-27,2981,1000
2012-06-28,2978,988
2012-06-29,2955,981
2012-06-30,2929,979
2012-07-01,2964,977
2012-07-02,2967,1002
2012-07-03,2982,1011
2012-07-04,2975,1011
2012-07-05,2978,991
2012-07-06,2996,990
2012-07-07,2986,975
2012-07-08,3000,971
2012-07-09,3003,982
2012-07-10,3002,993
2012-07-11,2968,985
2012-07-12,2970,992
2012-07-13,2988,985
2012-07-14,3012,983
2012-07-15,3032,985
2012-07-16,3036,986
2012-07-17,3017,1008
2012-07-18,3008,1007
2012-07-19,2999,1001
2012-07-20,3000,987
2012-07-21,3021,984
2012-07-22,3039,983
2012-07-23,3036,998
2012-07-24,3006,988
2012-07-25,3011,990
2012-07-26,3007,986
2012-07-27,3001,990
2012-07-28,3023,983
2012-07-29,3038,980
2012-07-30,3034,997
2012-07-31,3022,1009
2012-08-01,3040,1006
2012-08-02,3019,1012
2012-08-03,2978,1018
2012-08-04,2983,1006
2012-08-05,3014,1009
2012-08-06,3026,1027
2012-08-07,3039,1035
2012-08-08,3034,1040
2012-08-09,3043,1036
2012-08-10,3039,1036
2012-08-11,3059,1028
2012-08-12,3082,1023
2012-08-13,3079,1040
2012-08-14,3073,1051
2012-08-15,3052,1044
2012-08-16,3032,1033
2012-08-17,3025,1029
2012-08-18,3044,1030
2012-08-19,3034,1030
2012-08-20,3034,1035
2012-08-21,3045,1052
2012-08-22,3044,1056
2012-08-23,3060,1052
2012-08-24,3056,1033
2012-08-25,3054,1032
2012-08-26,3080,1037
2012-08-27,3041,1057
2012-08-28,3060,1063
2012-08-29,3058,1051
2012-08-30,3040,1056
2012-08-31,3062,1060
2012-09-01,3091,1062
2012-09-02,3087,1071
2012-09-03,3073,1066
2012-09-04,3073,1072
2012-09-05,3061,1062
2012-09-06,3041,1060
2012-09-07,3067,1059
2012-09-08,3082,1040
2012-09-09,3092,1053
2012-09-10,3093,1064
2012-09-11,3117,1069
2012-09-12,3093,1065
2012-09-13,3076,995
2012-09-14,3094,986
2012-09-15,3114,985
2012-09-16,3057,985
2012-09-17,2988,995
2012-09-18,2988,1011
2012-09-19,2967,1011
2012-09-20,2961,1014
2012-09-21,2951,1017
2012-09-22,2940,1017
2012-09-23,2944,1020
2012-09-24,2913,1026
2012-09-25,2893,1023
2012-09-26,2877,1014
2012-09-27,2868,1012
2012-09-28,2896,1016
2012-09-29,2916,1015
2012-09-30,2913,1017
2012-10-01,2921,1019
2012-10-02,2912,1035
2012-10-03,2952,1028
2012-10-04,2947,1021
2012-10-05,2950,1007
2012-10-06,2943,1005
2012-10-07,2933,1006
2012-10-08,2915,1014
2012-10-09,2923,1029
2012-10-10,2914,1035
2012-10-11,2894,1029
2012-10-12,2894,1021
2012-10-13,2916,1019
2012-10-14,2929,1022
2012-10-15,2937,1019
2012-10-16,2952,1033
2012-10-17,2960,1044
2012-10-18,2955,1038
2012-10-19,2964,1029
2012-10-20,2970,1036
2012-10-21,2966,1032
2012-10-22,2978,1046
2012-10-23,3000,1048
2012-10-24,2996,1045
2012-10-25,2991,1042
2012-10-26,2985,1044
2012-10-27,3004,1048
2012-10-28,2999,1041
2012-10-29,2958,1045
2012-10-30,2920,1028
2012-10-31,2925,1033
2012-11-01,2957,1059
2012-11-02,2975,1050
2012-11-03,3002,1048
2012-11-04,3003,1049
2012-11-05,2987,1061
2012-11-06,2968,1071
2012-11-07,2982,1067
2012-11-08,2973,1073
2012-11-09,2986,1060
2012-11-10,3015,1074
2012-11-11,3035,1069
2012-11-12,3008,1079
2012-11-13,3022,1068
2012-11-14,3132,1065
2012-11-15,3139,1065
2012-11-16,3066,1069
2012-11-17,3060,1065
2012-11-18,3051,1063
2012-11-19,3028,1067
2012-11-20,3024,1073
2012-11-21,3031,1069
2012-11-22,3011,1067
2012-11-23,2997,1078
2012-11-24,3024,1065
2012-11-25,3049,1058
2012-11-26,3043,1060
2012-11-27,3021,1065
2012-11-28,2988,1073
2012-11-29,3000,1059
2012-11-30,2998,1055
2012-12-01,3066,1074
2012-12-02,3096,1079
2012-12-03,3058,1077
2012-12-04,3049,1086
2012-12-05,3040,1091
2012-12-06,3036,1083
2012-12-07,3022,1083
2012-12-08,3035,1096
2012-12-09,3046,1092
2012-12-10,3024,1102
2012-12-11,2998,1104
2012-12-12,2986,1101
2012-12-13,2959,1103
2012-12-14,2941,1097
2012-12-15,2977,1100
2012-12-16,2984,1091
2012-12-17,2974,1105
2012-12-18,2961,1118
2012-12-19,2974,1100
2012-12-20,2962,1086
2012-12-21,2951,1084
2012-12-22,2925,1072
2012-12-23,2917,1060
2012-12-24,2892,1073
2012-12-25,2867,1078
2012-12-26,2874,1073
2012-12-27,2859,1063
2012-12-28,2936,1073
2012-12-29,2959,1080
2012-12-30,2969,1091
2012-12-31,2976,1107
2013-01-01,3008,1114
2013-01-02,3061,1129
2013-01-03,3063,1138
2013-01-04,3071,1138
2013-01-05,3063,1137
2013-01-06,3072,1131
2013-01-07,3065,1134
2013-01-08,3075,1138
2013-01-09,3059,1125
2013-01-10,3025,1126
2013-01-11,3045,1121
2013-01-12,3055,1113
2013-01-13,3103,1116
2013-01-14,3095,1124
2013-01-15,3073,1137
2013-01-16,3074,1138
2013-01-17,3073,1126
2013-01-18,3085,1125
2013-01-19,3104,1137
2013-01-20,3123,1150
2013-01-21,3119,1139
2013-01-22,3095,1140
2013-01-23,3066,1135
2013-01-24,3080,1144
2013-01-25,3071,1128
2013-01-26,3086,1138
2013-01-27,3098,1139
2013-01-28,3084,1140
2013-01-29,3102,1151
2013-01-30,3095,1127
2013-01-31,3100,1117
2013-02-01,3138,1128
2013-02-02,3189,1126
2013-02-03,3284,1124
2013-02-04,3273,1141
2013-02-05,3140,1158
2013-02-06,3123,1165
2013-02-07,3116,1163
2013-02-08,3126,1147
2013-02-09,3124,1149
2013-02-10,3134,1157
2013-02-11,3150,1177
2013-02-12,3145,1177
2013-02-13,3123,1182
2013-02-14,3121,1192
2013-02-15,3099,1195
2013-02-16,3107,1195
2013-02-17,3155,1187
2013-02-18,3133,1202
2013-02-19,3126,1207
2013-02-20,3141,1192
2013-02-21,3121,1196
2013-02-22,3142,1193
2013-02-23,3169,1216
2013-02-24,3181,1220
2013-02-25,3148,1215
2013-02-26,3143,1220
2013-02-27,3142,1218
2013-02-28,3152,1217
2013-03-01,3207,1224
2013-03-02,3235,1244
2013-03-03,3240,1237
2013-03-04,3233,1240
2013-03-05,3205,1270
2013-03-06,3166,1263
2013-03-07,3155,1249
2013-03-08,3164,1256
2013-03-09,3208,1272
2013-03-10,3210,1276
2013-03-11,3224,1269
2013-03-12,3239,1275
2013-03-13,3241,1299
2013-03-14,3219,1288
2013-03-15,3237,1298
2013-03-16,3264,1311
2013-03-17,3294,1323
2013-03-18,3275,1319
2013-03-19,3277,1321
2013-03-20,3275,1312
2013-03-21,3273,1301
2013-03-22,3289,1298
2013-03-23,3292,1322
2013-03-24,3290,1337
2013-03-25,3268,1331
2013-03-26,3232,1337
2013-03-27,3253,1322
2013-03-28,3260,1325
2013-03-29,3286,1324
2013-03-30,3280,1317
2013-03-31,3296,1316
2013-04-01,3353,1335
2013-04-02,3323,1349
2013-04-03,3343,1339
2013-04-04,3334,1336
2013-04-05,3315,1334
2013-04-06,3335,1350
2013-04-07,3332,1347
2013-04-08,3327,1339
2013-04-09,3310,1355
2013-04-10,3327,1343
2013-04-11,3339,1346
2013-04-12,3345,1345
2013-04-13,3388,1354
2013-04-14,3398,1360
2013-04-15,3327,1354
2013-04-16,3346,1350
2013-04-17,3347,1367
2013-04-18,3347,1428
2013-04-19,3389,1504
2013-04-20,3388,1580
2013-04-21,3399,1608
2013-04-22,3393,1607
2013-04-23,3408,1608
2013-04-24,3387,1611
2013-04-25,3391,1603
2013-04-26,3413,1598
2013-04-27,3429,1633
2013-04-28,3444,1623
2013-04-29,3413,1617
2013-04-30,3411,1637
2013-05-01,3492,1662
2013-05-02,3496,1647
2013-05-03,3479,1666
2013-05-04,3508,1653
2013-05-05,3497,1659
2013-05-06,3478,1667
2013-05-07,3487,1679
2013-05-08,3473,1677
2013-05-09,3489,1680
2013-05-10,3481,1674
2013-05-11,3538,1655
2013-05-12,3543,1649
2013-05-13,3506,1667
2013-05-14,3499,1690
2013-05-15,3462,1688
2013-05-16,3448,1700
2013-05-17,3467,1690
2013-05-18,3507,1720
2013-05-19,3484,1709
2013-05-20,3473,1720
2013-05-21,3473,1718
2013-05-22,3479,1701
2013-05-23,3465,1700
2013-05-24,3461,1685
2013-05-25,3489,1691
2013-05-26,3517,1698
2013-05-27,3485,1691
2013-05-28,3463,1709
2013-05-29,3492,1704
2013-05-30,3507,1716
2013-05-31,3491,1700
2013-06-01,3519,1706
2013-06-02,3541,1706
2013-06-03,3525,1704
2013-06-04,3539,1722
2013-06-05,3506,1721
2013-06-06,3478,1712
2013-06-07,3456,1705
2013-06-08,3529,1730
2013-06-09,3540,1763
2013-06-10,3585,1788
2013-06-11,3600,1788
2013-06-12,3620,1794
2013-06-13,3630,1799
2013-06-14,3670,1796
2013-06-15,3722,1807
2013-06-16,3734,1806
2013-06-17,3701,1798
2013-06-18,3714,1830
2013-06-19,3739,1825
2013-06-20,3731,1830
2013-06-21,3708,1840
2013-06-22,3755,1834
2013-06-23,3782,1838
2013-06-24,3798,1836
2013-06-25,3791,1852
2013-06-26,3800,1835
2013-06-27,3798,1850
2013-06-28,3794,1847
2013-06-29,3838,1831
2013-06-30,3854,1816
2013-07-01,3885,1845
2013-07-02,3881,1867
2013-07-03,3883,1859
2013-07-04,3895,1862
2013-07-05,3921,1845
2013-07-06,3904,1849
2013-07-07,3938,1856
2013-07-08,3899,1860
2013-07-09,3909,1872
2013-07-10,3918,1863
2013-07-11,3941,1866
2013-07-12,3955,1873
2013-07-13,3989,1877
2013-07-14,3978,1863
2013-07-15,3982,1857
2013-07-16,3953,1883
2013-07-17,3972,1899
2013-07-18,3968,1877
2013-07-19,3970,1880
2013-07-20,3973,1872
2013-07-21,4005,1873
2013-07-22,3998,1891
2013-07-23,3984,1902
2013-07-24,3991,1909
2013-07-25,3972,1901
2013-07-26,3970,1889
2013-07-27,4018,1891
2013-07-28,4052,1886
2013-07-29,4062,1901
2013-07-30,4068,1911
2013-07-31,4068,1924
2013-08-01,4136,1902
2013-08-02,4194,1896
2013-08-03,4219,1898
2013-08-04,4239,1909
2013-08-05,4213,1906
2013-08-06,4207,1927
2013-08-07,4188,1922
2013-08-08,4188,1916
2013-08-09,4195,1912
2013-08-10,4216,1918
2013-08-11,4231,1912
2013-08-12,4229,1939
2013-08-13,4229,1939
2013-08-14,4237,1936
2013-08-15,4249,1929
2013-08-16,4250,1930
2013-08-17,4286,1942
2013-08-18,4300,1928
2013-08-19,4297,1939
2013-08-20,4289,1959
2013-08-21,4317,1961
2013-08-22,4317,1960
2013-08-23,4314,1947
2013-08-24,4322,1942
2013-08-25,4334,1926
2013-08-26,4334,1909
2013-08-27,4353,1931
2013-08-28,4309,1914
2013-08-29,4279,1913
2013-08-30,4296,1932
2013-08-31,4318,1919
2013-09-01,4364,1950
2013-09-02,4305,1959
2013-09-03,4266,1954
2013-09-04,4277,1965
2013-09-05,4253,1983
2013-09-06,4231,1921
2013-09-07,4325,1891
2013-09-08,4358,1899
2013-09-09,4363,1891
2013-09-10,4350,1888
2013-09-11,4330,1877
2013-09-12,4317,1882
2013-09-13,4270,1888
2013-09-14,4295,1902
2013-09-15,4321,1910
2013-09-16,4282,1899
2013-09-17,4271,1906
2013-09-18,4277,1899
2013-09-19,4216,1890
2013-09-20,4161,1893
2013-09-21,4215,1915
2013-09-22,4242,1899
2013-09-23,4177,1897
2013-09-24,4158,1889
2013-09-25,4160,1891
2013-09-26,4146,1882
2013-09-27,4134,1880
2013-09-28,4175,1891
2013-09-29,3971,1902
2013-09-30,4101,1881
2013-10-01,4186,1911
2013-10-02,4204,1924
2013-10-03,4211,1917
2013-10-04,4231,1908
2013-10-05,4370,1925
2013-10-06,4403,1956
2013-10-07,4372,1951
2013-10-08,4388,1973
2013-10-09,4452,1958
2013-10-10,4460,1931
2013-10-11,4479,1928
2013-10-12,4522,1952
2013-10-13,4512,1959
2013-10-14,4499,1948
2013-10-15,4509,1957
2013-10-16,4516,1941
2013-10-17,4519,1941
2013-10-18,4507,1943
2013-10-19,4518,1956
2013-10-20,4546,1930
2013-10-21,4519,1926
2013-10-22,4508,1933
2013-10-23,4508,1941
2013-10-24,4501,1954
2013-10-25,4501,1957
2013-10-26,4538,1947
2013-10-27,4552,1958
2013-10-28,4531,1958
2013-10-29,4529,1989
2013-10-30,4490,1976
2013-10-31,4453,1970
2013-11-01,4559,1990
2013-11-02,4631,1998
2013-11-03,4633,1987
2013-11-04,4633,1986
2013-11-05,4596,1990
2013-11-06,4602,2005
2013-11-07,4619,1989
2013-11-08,4639,1986
2013-11-09,4640,2007
2013-11-10,4652,2000
2013-11-11,4627,1992
2013-11-12,4641,1999
2013-11-13,4629,1992
2013-11-14,4632,1993
2013-11-15,4642,1988
2013-11-16,4676,2034
2013-11-17,4682,2024
2013-11-18,4638,2029
2013-11-19,4652,2016
2013-11-20,4647,2019
2013-11-21,4641,2002
2013-11-22,4640,2012
2013-11-23,4666,2019
2013-11-24,4701,2001
2013-11-25,4671,2002
2013-11-26,4669,2007
2013-11-27,4653,2103
2013-11-28,4639,2110
2013-11-29,4646,2100
2013-11-30,4706,2121
2013-12-01,4813,2127
2013-12-02,4773,2111
2013-12-03,4753,2120
2013-12-04,4756,2132
2013-12-05,4740,2126
2013-12-06,4744,2129
2013-12-07,4775,2268
2013-12-08,4790,2285
2013-12-09,4749,2287
2013-12-10,4747,2293
2013-12-11,4745,2280
2013-12-12,4756,2255
2013-12-13,4742,2244
2013-12-14,4765,2274
2013-12-15,4833,2262
2013-12-16,4799,2243
2013-12-17,4794,2011
2013-12-18,4775,2271
2013-12-19,4746,2272
2013-12-20,4745,2245
2013-12-21,4758,2249
2013-12-22,4751,2248
2013-12-23,4673,2252
2013-12-24,4602,2232
2013-12-25,4561,2187
2013-12-26,4605,2206
2013-12-27,4661,2228
2013-12-28,4721,2228
2013-12-29,4768,2214
2013-12-30,4772,2250
2013-12-31,4750,2230
2014-01-01,4820,2201
2014-01-02,4843,2243
2014-01-03,4898,2254
2014-01-04,4973,2281
2014-01-05,4997,2279
2014-01-06,4974,2290
2014-01-07,5009,2321
2014-01-08,5052,2330
2014-01-09,5051,2322
2014-01-10,5029,2323
2014-01-11,5026,2328
2014-01-12,5069,2328
2014-01-13,5029,2333
2014-01-14,5035,2340
2014-01-15,5074,2317
2014-01-16,5067,2328
2014-01-17,5067,2334
2014-01-18,5144,2356
2014-01-19,5172,2373
2014-01-20,5092,2349
2014-01-21,5101,2378
2014-01-22,5121,2370
2014-01-23,5083,2367
2014-01-24,5032,2398
2014-01-25,5135,2427
2014-01-26,5151,2416
2014-01-27,5115,2408
2014-01-28,5104,2419
2014-01-29,5156,2426
2014-01-30,5171,2402
2014-01-31,5202,2386
2014-02-01,5296,2432
2014-02-02,5308,2432
2014-02-03,5220,2429
2014-02-04,5232,2468
2014-02-05,5219,2451
2014-02-06,5199,2436
2014-02-07,5200,2441
2014-02-08,5233,2469
2014-02-09,5256,2451
2014-02-10,5194,2508
2014-02-11,5173,2752
2014-02-12,5175,2745
2014-02-13,5161,2677
2014-02-14,5157,
2014-02-15,5227,2823
2014-02-16,5279,2785
2014-02-17,5232,2769
2014-02-18,5257,2790
2014-02-19,5239,2745
2014-02-20,5215,2916
2014-02-21,5218,2820
2014-02-22,5248,2991
2014-02-23,5228,2986
2014-02-24,5193,2974
2014-02-25,5189,2972
2014-02-26,5197,2832
2014-02-27,5195,2946
2014-02-28,5196,
2014-03-01,5294,3019
2014-03-02,5309,2985
2014-03-03,5242,2945
2014-03-04,5245,2979
2014-03-05,5225,2998
2014-03-06,5199,2944
2014-03-07,5231,2971
2014-03-08,5239,2991
2014-03-09,5223,3001
2014-03-10,5203,2966
2014-03-11,5202,2998
2014-03-12,5214,2970
2014-03-13,5199,2974
2014-03-14,5214,2860
2014-03-15,5262,2813
2014-03-16,5308,2819
2014-03-17,5280,2807
2014-03-18,5261,2794
2014-03-19,5261,2772
2014-03-20,5246,2777
2014-03-21,5265,2815
2014-03-22,5304,2856
2014-03-23,5358,2857
2014-03-24,5324,2805
2014-03-25,5407,2830
2014-03-26,5407,2864
2014-03-27,5398,2951
2014-03-28,5399,3296
2014-03-29,5420,3351
2014-03-30,5450,3346
2014-03-31,5415,3311
2014-04-01,5474,3304
2014-04-02,5454,3311
2014-04-03,5436,3313
2014-04-04,5462,3326
2014-04-05,5500,3548
2014-04-06,5507,3549
2014-04-07,5444,3538
2014-04-08,5222,3379
2014-04-09,5121,3314
2014-04-10,5169,3283
2014-04-11,5385,3299
2014-04-12,5414,3299
2014-04-13,5434,3336
2014-04-14,5383,3140
2014-04-15,5372,
2014-04-16,5341,
2014-04-17,5171,
2014-04-18,4382,
2014-04-19,4390,
2014-04-20,4440,
2014-04-21,4471,
2014-04-22,4485,772
2014-04-23,4493,2975
2014-04-24,4524,2998
2014-04-25,4533,3010
2014-04-26,4572,3043
2014-04-27,4594,3049
2014-04-28,4585,3011
2014-04-29,4611,3006
2014-04-30,4636,2998
2014-05-01,4725,3265
2014-05-02,4742,3241
2014-05-03,4643,3227
2014-05-04,4606,3240
2014-05-05,4623,3249
2014-05-06,4612,3277
2014-05-07,4627,3266
2014-05-08,4633,3282
2014-05-09,4618,3281
2014-05-10,4633,3299
2014-05-11,4674,3286
2014-05-12,4632,3270
2014-05-13,4629,3249
2014-05-14,4620,3250
2014-05-15,4626,3245
2014-05-16,4679,3160
2014-05-17,4695,3192
2014-05-18,4683,3198
2014-05-19,4683,3181
2014-05-20,4693,3180
2014-05-21,4718,3206
2014-05-22,4729,3177
2014-05-23,4731,3190
2014-05-24,4763,3207
2014-05-25,4802,3213
2014-05-26,4790,3210
2014-05-27,4795,3180
2014-05-28,4793,3186
2014-05-29,4800,3215
2014-05-30,4775,3189
2014-05-31,4787,3201
2014-06-01,4846,3233
2014-06-02,4830,3218
2014-06-03,4832,3188
2014-06-04,4850,3171
2014-06-05,4919,3165
2014-06-06,5177,3194
2014-06-07,5299,3217
2014-06-08,5368,3185
2014-06-09,5412,3220
2014-06-10,5426,3219
2014-06-11,5412,3210
2014-06-12,5419,3214
2014-06-13,5432,3191
2014-06-14,5468,3220
2014-06-15,5485,3239
2014-06-16,5516,3195
2014-06-17,5558,3210
2014-06-18,5557,3202
2014-06-19,5570,3221
2014-06-20,5569,3219
2014-06-21,5555,3237
2014-06-22,5554,3238
2014-06-23,5554,3225
2014-06-24,5575,3223
2014-06-25,5571,3224
2014-06-26,5599,3197
2014-06-27,5615,3199
2014-06-28,5611,3210
2014-06-29,5626,3226
2014-06-30,5544,3202
2014-07-01,5556,3200
2014-07-02,5589,3199
2014-07-03,5659,3184
2014-07-04,5777,3193
2014-07-05,5872,3233
2014-07-06,5924,3239
2014-07-07,5929,3211
2014-07-08,5887,3216
2014-07-09,5817,3206
2014-07-10,5823,3193
2014-07-11,5868,3343
2014-07-12,5879,3478
2014-07-13,5876,3733
2014-07-14,5879,3681
2014-07-15,5880,3885
2014-07-16,5898,3738
2014-07-17,5919,3724
2014-07-18,5899,3709
2014-07-19,5846,3721
2014-07-20,5851,3742
2014-07-21,5853,3757
2014-07-22,5851,3720
2014-07-23,5846,3712
2014-07-24,5846,3701
2014-07-25,5876,3745
2014-07-26,5919,3682
2014-07-27,5931,3531
2014-07-28,5923,3668
2014-07-29,5932,3659
2014-07-30,5937,3750
2014-07-31,5977,3736
2014-08-01,6066,3700
2014-08-02,6124,3693
2014-08-03,6090,3721
2014-08-04,6100,3682
2014-08-05,6090,3679
2014-08-06,6065,3671
2014-08-07,6050,3682
2014-08-08,6016,3665
2014-08-09,6031,3681
2014-08-10,6035,3678
2014-08-11,6027,3652
2014-08-12,6040,3602
2014-08-13,5998,3654
2014-08-14,5984,3637
2014-08-15,6005,3636
2014-08-16,5990,3639
2014-08-17,5999,3676
2014-08-18,6010,3574
2014-08-19,6008,3537
2014-08-20,6013,3649
2014-08-21,5996,3712
2014-08-22,6022,3693
2014-08-23,6046,3711
2014-08-24,6053,3697
2014-08-25,6055,3701
2014-08-26,6029,3704
2014-08-27,6019,3730
2014-08-28,6025,3701
2014-08-29,6016,3686
2014-08-30,6047,3693
2014-08-31,6049,3708
2014-09-01,6113,3668
2014-09-02,6153,3678
2014-09-03,6129,3668
2014-09-04,6177,3672
2014-09-05,6171,3664
2014-09-06,6178,3684
2014-09-07,6218,3688
2014-09-08,6199,3655
2014-09-09,6192,3649
2014-09-10,6153,3643
2014-09-11,6156,3649
2014-09-12,6162,3625
2014-09-13,6176,3656
2014-09-14,6206,3675
2014-09-15,6167,3651
2014-09-16,6164,3634
2014-09-17,6154,3629
2014-09-18,6185,3642
2014-09-19,6167,3639
2014-09-20,6199,3661
2014-09-21,6211,3539
2014-09-22,6190,3581
2014-09-23,6180,3624
2014-09-24,6158,3624
2014-09-25,6159,3628
2014-09-26,6176,3636
2014-09-27,6166,3640
2014-09-28,6173,3569
2014-09-29,6143,3611
2014-09-30,6197,3620
2014-10-01,6280,3622
2014-10-02,6300,3496
2014-10-03,6294,3419
2014-10-04,6344,3449
2014-10-05,6388,3495
2014-10-06,6309,3424
2014-10-07,6331,3429
2014-10-08,6359,3429
2014-10-09,6409,3405
2014-10-10,6442,3404
2014-10-11,6478,3429
2014-10-12,6484,3448
2014-10-13,6472,3432
2014-10-14,6476,3423
2014-10-15,6454,3393
2014-10-16,6428,3362
2014-10-17,6452,3404
2014-10-18,6493,3452
2014-10-19,6535,3465
2014-10-20,6528,3423
2014-10-21,6526,3352
2014-10-22,6545,3420
2014-10-23,6508,3435
2014-10-24,6483,3454
2014-10-25,6501,3668
2014-10-26,6506,3788
2014-10-27,6497,3784
2014-10-28,6515,3799
2014-10-29,6491,3791
2014-10-30,6492,3774
2014-10-31,6501,3684
2014-11-01,6565,3771
2014-11-02,6628,3833
2014-11-03,6553,3901
2014-11-04,6589,4020
2014-11-05,6589,3998
2014-11-06,6590,3978
2014-11-07,6569,3976
2014-11-08,6599,3997
2014-11-09,6620,4008
2014-11-10,6570,3910
2014-11-11,6590,3899
2014-11-12,6529,3888
2014-11-13,6532,3807
2014-11-14,6590,4030
2014-11-15,6623,4080
2014-11-16,6646,4115
2014-11-17,6631,4039
2014-11-18,6617,4004
2014-11-19,6591,3819
2014-11-20,6604,3995
2014-11-21,6677,4000
2014-11-22,6681,4023
2014-11-23,6688,4015
2014-11-24,6688,3967
2014-11-25,6679,3911
2014-11-26,6658,3776
2014-11-27,6644,3781
2014-11-28,6664,3880
2014-11-29,6686,4010
2014-11-30,6709,4008
2014-12-01,6747,3996
2014-12-02,6789,3910
2014-12-03,6741,4028
2014-12-04,6781,4036
2014-12-05,6792,4019
2014-12-06,6792,4031
2014-12-07,6778,4034
2014-12-08,6752,4036
2014-12-09,6761,3989
2014-12-10,6725,3990
2014-12-11,6694,3977
2014-12-12,6666,3901
2014-12-13,6671,3996
2014-12-14,6670,4028
2014-12-15,6591,3991
2014-12-16,6661,3984
2014-12-17,6645,3972
2014-12-18,6644,3980
2014-12-19,6639,3985
2014-12-20,6649,3995
2014-12-21,6612,4188
2014-12-22,6595,4175
2014-12-23,6699,4162
2014-12-24,6683,4119
2014-12-25,6682,4074
2014-12-26,7959,4091
2014-12-27,6733,4085
2014-12-28,6713,4104
2014-12-29,6720,4144
2014-12-30,6782,4126
2014-12-31,6744,4151
2015-01-01,6832,4159
2015-01-02,6919,4191
2015-01-03,6968,4179
2015-01-04,7053,4227
2015-01-05,7078,4175
2015-01-06,7092,4161
2015-01-07,7121,4152
2015-01-08,7153,4164
2015-01-09,7104,4171
2015-01-10,7063,4193
2015-01-11,7083,4189
2015-01-12,7019,4111
2015-01-13,6973,4099
2015-01-14,6966,4097
2015-01-15,6967,4091
2015-01-16,6981,3864
2015-01-17,7004,4209
2015-01-18,7022,4215
2015-01-19,7006,4176
2015-01-20,7026,4169
2015-01-21,6993,4160
2015-01-22,6964,4110
2015-01-23,6944,4119
2015-01-24,6941,4201
2015-01-25,6947,4215
2015-01-26,6895,4179
2015-01-27,6888,4205
2015-01-28,6880,4176
2015-01-29,6907,4168
2015-01-30,6925,4162
2015-01-31,6949,4215
2015-02-01,7022,4205
2015-02-02,6989,4180
2015-02-03,6961,4168
2015-02-04,7018,4209
2015-02-05,7023,4175
2015-02-06,7027,4179
2015-02-07,7050,4180
2015-02-08,7073,4197
2015-02-09,7025,4145
2015-02-10,7009,4141
2015-02-11,6990,4144
2015-02-12,6997,4132
2015-02-13,6996,4103
2015-02-14,7014,4131
2015-02-15,7013,4086
2015-02-16,6980,4092
2015-02-17,6969,4059
2015-02-18,6960,4086
2015-02-19,6927,4069
2015-02-20,6929,4068
2015-02-21,6945,4126
2015-02-22,6937,4133
2015-02-23,6901,4100
2015-02-24,6874,3984
2015-02-25,6863,3966
2015-02-26,6807,3950
2015-02-27,6794,3982
2015-02-28,6800,3985
2015-03-01,6919,3974
2015-03-02,6888,3944
2015-03-03,6893,3926
2015-03-04,6906,3931
2015-03-05,6905,3787
2015-03-06,6920,3674
2015-03-07,6907,3681
2015-03-08,6917,3684
2015-03-09,6914,3652
2015-03-10,6901,3663
2015-03-11,6875,3651
2015-03-12,6827,3508
2015-03-13,6824,3427
2015-03-14,6856,3525
2015-03-15,6836,3656
2015-03-16,6784,3644
2015-03-17,6736,3649
2015-03-18,6733,3644
2015-03-19,6730,3648
2015-03-20,6747,3620
2015-03-21,6763,3680
2015-03-22,6756,3686
2015-03-23,6724,3657
2015-03-24,6731,3651
2015-03-25,6705,3644
2015-03-26,6685,3661
2015-03-27,6643,3673
2015-03-28,6571,3691
2015-03-29,6562,3698
2015-03-30,6548,3687
2015-03-31,6531,3705
2015-04-01,6677,3896
2015-04-02,6679,3899
2015-04-03,6670,3897
2015-04-04,6722,3897
2015-04-05,6731,3901
2015-04-06,6750,3961
2015-04-07,6749,3998
2015-04-08,6715,3991
2015-04-09,6702,3985
2015-04-10,6684,3951
2015-04-11,6688,3964
2015-04-12,6671,3962
2015-04-13,6666,3950
2015-04-14,6674,3967
2015-04-15,6682,3945
2015-04-16,6690,3942
2015-04-17,6715,3951
2015-04-18,6711,3963
2015-04-19,6713,3975
2015-04-20,6702,3943
2015-04-21,6718,3945
2015-04-22,6681,3949
2015-04-23,6669,3915
2015-04-24,6605,3265
2015-04-25,6592,3755
2015-04-26,6587,3839
2015-04-27,6565,3751
2015-04-28,6535,3686
2015-04-29,6500,3717
2015-04-30,6478,3511
2015-05-01,6558,3538
2015-05-02,6613,3540
2015-05-03,6623,3545
2015-05-04,6660,3557
2015-05-05,6642,3537
2015-05-06,6668,3533
2015-05-07,6665,3521
2015-05-08,6638,3529
2015-05-09,6630,3560
2015-05-10,6611,3539
2015-05-11,6625,3520
2015-05-12,6620,3491
2015-05-13,6603,3487
2015-05-14,6594,3503
2015-05-15,6609,3511
2015-05-16,6646,
2015-05-17,6653,
2015-05-18,6636,3591
2015-05-19,6668,3440
2015-05-20,6669,3438
2015-05-21,6632,3437
2015-05-22,6654,3421
2015-05-23,6673,3420
2015-05-24,6685,3415
2015-05-25,6707,3273
2015-05-26,6705,3194
2015-05-27,6667,3199
2015-05-28,6654,3205
2015-05-29,6662,3203
2015-05-30,6655,3213
2015-05-31,6622,3161
2015-06-01,6637,3028
2015-06-02,6654,3027
2015-06-03,6674,3023
2015-06-04,6788,2965
2015-06-05,6725,2818
2015-06-06,6643,2838
2015-06-07,6652,2849
2015-06-08,6627,2817
2015-06-09,6598,2814
2015-06-10,6651,2785
2015-06-11,6643,2774
2015-06-12,6653,2764
2015-06-13,6652,2784
2015-06-14,6561,2797
2015-06-15,6566,2779
2015-06-16,6655,2767
2015-06-17,6644,2828
2015-06-18,6617,3036
2015-06-19,6649,2924
2015-06-20,6671,3054
2015-06-21,6675,3258
2015-06-22,6676,3249
2015-06-23,6696,3239
2015-06-24,6713,3226
2015-06-25,6713,3219
2015-06-26,6699,3221
2015-06-27,6694,3233
2015-06-28,6699,3238
2015-06-29,6655,3204
2015-06-30,6634,3202
2015-07-01,6631,3199
2015-07-02,6681,3191
2015-07-03,6686,3183
2015-07-04,6700,3194
2015-07-05,6684,3208
2015-07-06,6676,3278
2015-07-07,6623,3395
2015-07-08,6553,3417
2015-07-09,6627,3396
2015-07-10,6596,3323
2015-07-11,6591,3352
2015-07-12,6587,3407
2015-07-13,6579,3396
2015-07-14,6556,3571
2015-07-15,6545,3632
2015-07-16,6529,3658
2015-07-17,6529,3662
2015-07-18,6534,3663
2015-07-19,6533,3672
2015-07-20,6537,3674
2015-07-21,6506,3654
2015-07-22,6474,3664
2015-07-23,6490,3650
2015-07-24,6448,3488
2015-07-25,6387,3488
2015-07-26,6394,3495
2015-07-27,6380,3490
2015-07-28,6378,3460
2015-07-29,6372,3472
2015-07-30,6330,3467
2015-07-31,6284,3450
2015-08-01,6364,3439
2015-08-02,6400,3483
2015-08-03,6293,3462
2015-08-04,6317,3465
2015-08-05,6308,3642
2015-08-06,6338,3638
2015-08-07,6342,3776
2015-08-08,6348,2950
2015-08-09,6349,2680
2015-08-10,6314,2780
2015-08-11,6307,3158
2015-08-12,6306,3164
2015-08-13,6282,3152
2015-08-14,6280,3159
2015-08-15,6276,3173
2015-08-16,6279,3184
2015-08-17,6258,3157
2015-08-18,6245,3160
2015-08-19,6243,3148
2015-08-20,6254,3149
2015-08-21,6271,3157
2015-08-22,6248,3158
2015-08-23,6248,3173
2015-08-24,6233,3152
2015-08-25,6282,3153
2015-08-26,6283,3152
2015-08-27,6297,3146
2015-08-28,6292,3133
2015-08-29,6300,3019
2015-08-30,6294,2902
2015-08-31,6279,2979
2015-09-01,6367,3072
2015-09-02,6416,3074
2015-09-03,6412,3070
2015-09-04,6439,3067
2015-09-05,6436,3089
2015-09-06,6447,3084
2015-09-07,6433,3072
2015-09-08,6430,3066
2015-09-09,6396,3041
2015-09-10,6380,3042
2015-09-11,6385,3044
2015-09-12,6393,3061
2015-09-13,6411,2954
2015-09-14,6420,3059
2015-09-15,6488,3231
2015-09-16,6464,3303
2015-09-17,6490,3308
2015-09-18,6517,3310
2015-09-19,6524,3345
2015-09-20,6533,3347
2015-09-21,6504,3349
2015-09-22,6491,3355
2015-09-23,6507,3342
2015-09-24,6510,3331
2015-09-25,6524,3332
2015-09-26,6540,3351
2015-09-27,6540,3347
2015-09-28,6562,3314
2015-09-29,6569,3316
2015-09-30,6568,3207
2015-10-01,6652,3054
2015-10-02,6684,3074
2015-10-03,6692,3104
2015-10-04,6714,3120
2015-10-05,6680,3079
2015-10-06,6637,3067
2015-10-07,6584,3063
2015-10-08,6597,3063
2015-10-09,6571,3051
2015-10-10,6563,3068
2015-10-11,6574,3081
2015-10-12,6547,3075
2015-10-13,6541,3064
2015-10-14,6532,3053
2015-10-15,6538,3043
2015-10-16,6524,3064
2015-10-17,6531,3099
2015-10-18,6544,3113
2015-10-19,6524,3072
2015-10-20,6537,3074
2015-10-21,6541,3063
2015-10-22,6545,3059
2015-10-23,6556,3049
2015-10-24,6604,3065
2015-10-25,6614,3072
2015-10-26,6611,3051
2015-10-27,6629,3023
2015-10-28,6618,3060
2015-10-29,6584,3036
2015-10-30,6580,3050
2015-10-31,6729,3060
2015-11-01,6840,3062
2015-11-02,6768,3064
2015-11-03,6692,3068
2015-11-04,6710,3077
2015-11-05,6695,3005
2015-11-06,6695,2860
2015-11-07,6722,2819
2015-11-08,6716,2880
2015-11-09,6709,2965
2015-11-10,6707,3050
2015-11-11,6761,3041
2015-11-12,6749,3045
2015-11-13,6707,3058
2015-11-14,6714,3096
2015-11-15,6713,3082
2015-11-16,6703,3062
2015-11-17,6707,3066
2015-11-18,6729,3065
2015-11-19,6754,3067
2015-11-20,6778,3084
2015-11-21,6810,3123
2015-11-22,6787,3120
2015-11-23,6755,3113
2015-11-24,6740,3102
2015-11-25,6744,3106
2015-11-26,6737,3101
2015-11-27,6751,3088
2015-11-28,6745,3117
2015-11-29,6761,3011
2015-11-30,6721,2910
2015-12-01,6815,2928
2015-12-02,6866,2868
2015-12-03,6847,2668
2015-12-04,6902,2663
2015-12-05,6932,2702
2015-12-06,6942,2703
2015-12-07,6785,2679
2015-12-08,6929,2687
2015-12-09,6979,2686
2015-12-10,6992,2692
2015-12-11,7010,2678
2015-12-12,7008,2696
2015-12-13,7012,2697
2015-12-14,6977,2669
2015-12-15,6981,2655
2015-12-16,7008,2652
2015-12-17,6983,2667
2015-12-18,6994,2647
2015-12-19,6832,2655
2015-12-20,7002,2669
2015-12-21,6985,2648
2015-12-22,6993,2659
2015-12-23,6968,2649
2015-12-24,6930,2609
2015-12-25,6908,2611
2015-12-26,6919,2620
2015-12-27,6909,2617
2015-12-28,6912,2622
2015-12-29,6936,2630
2015-12-30,6953,2653
2015-12-31,6943,2647
2016-01-01,7001,2657
2016-01-02,7010,2675
2016-01-03,7052,2686
2016-01-04,7133,2686
2016-01-05,7175,2696
2016-01-06,7188,2690
2016-01-07,7203,2689
2016-01-08,7221,2695
2016-01-09,7189,2711
2016-01-10,7217,2713
2016-01-11,7172,2682
2016-01-12,7171,2687
2016-01-13,7149,2661
2016-01-14,7143,2434
2016-01-15,7135,1972
2016-01-16,7148,1987
2016-01-17,7148,2204
2016-01-18,7152,2341
2016-01-19,7171,2526
2016-01-20,7165,2478
2016-01-21,7155,2595
2016-01-22,7133,2645
2016-01-23,7137,2664
2016-01-24,7138,2699
2016-01-25,7114,2889
2016-01-26,7128,2883
2016-01-27,7137,2806
2016-01-28,7139,2883
2016-01-29,7111,2876
2016-01-30,7125,2898
2016-01-31,7137,2892
2016-02-01,7195,2883
2016-02-02,7250,2877
2016-02-03,7265,2868
2016-02-04,7318,2881
2016-02-05,7315,2870
2016-02-06,7315,2897
2016-02-07,7330,2924
2016-02-08,7299,2897
2016-02-09,7282,2889
2016-02-10,7247,2863
2016-02-11,7240,2871
2016-02-12,7229,2878
2016-02-13,7243,2892
2016-02-14,7226,2897
2016-02-15,7196,2875
2016-02-16,7209,2886
2016-02-17,7228,2757
2016-02-18,7219,2867
2016-02-19,7217,2408
2016-02-20,7221,2527
2016-02-21,7212,2659
2016-02-22,7222,2625
2016-02-23,7234,2620
2016-02-24,7219,2595
2016-02-25,7222,2490
2016-02-26,7187,2608
2016-02-27,7169,2700
2016-02-28,7170,2868
2016-02-29,7146,2849
2016-03-01,7243,2857
2016-03-02,7249,2871
2016-03-03,7246,2847
2016-03-04,7263,2412
2016-03-05,7250,2530
2016-03-06,7246,2629
2016-03-07,7256,2563
2016-03-08,7278,2559
2016-03-09,7210,2680
2016-03-10,7195,2793
2016-03-11,7168,2795
2016-03-12,7174,2823
2016-03-13,7120,2836
2016-03-14,7094,2826
2016-03-15,7121,2810
2016-03-16,7110,2814
2016-03-17,7121,2807
2016-03-18,7113,2813
2016-03-19,7143,2759
2016-03-20,7151,2764
2016-03-21,7131,2731
2016-03-22,7135,2735
2016-03-23,7125,2752
2016-03-24,7134,2748
2016-03-25,7154,2754
2016-03-26,7118,2752
2016-03-27,7121,2758
2016-03-28,7142,2748
2016-03-29,7094,2735
2016-03-30,7096,2725
2016-03-31,7112,2737
2016-04-01,7198,2734
2016-04-02,7233,2748
2016-04-03,7199,2634
2016-04-04,7230,2722
2016-04-05,7236,2724
2016-04-06,7286,2745
2016-04-07,7321,2734
2016-04-08,7330,2729
2016-04-09,7340,2734
2016-04-10,7325,2555
2016-04-11,7275,2569
2016-04-12,7193,2552
2016-04-13,7192,2523
2016-04-14,7205,2601
2016-04-15,7208,2719
2016-04-16,7204,2731
2016-04-17,7232,2745
2016-04-18,7222,2726
2016-04-19,7205,2721
2016-04-20,7163,2715
2016-04-21,7128,2713
2016-04-22,7128,2708
2016-04-23,7126,2741
2016-04-24,7119,2735
2016-04-25,7100,2705
2016-04-26,7101,2708
2016-04-27,7076,2701
2016-04-28,7104,2692
2016-04-29,7090,2692
2016-04-30,7038,2719
2016-05-01,7111,2734
2016-05-02,7089,2708
2016-05-03,7063,2712
2016-05-04,7065,2718
2016-05-05,7080,2727
2016-05-06,7085,2711
2016-05-07,7053,2718
2016-05-08,7074,2727
2016-05-09,7094,2682
2016-05-10,7097,2684
2016-05-11,7034,2674
2016-05-12,7029,2539
2016-05-13,7080,2507
2016-05-14,7009,2520
2016-05-15,7055,2516
2016-05-16,7074,2525
2016-05-17,7056,2524
2016-05-18,7039,2528
2016-05-19,7041,2515
2016-05-20,7052,2510
2016-05-21,7074,2529
2016-05-22,7069,2536
2016-05-23,7071,2526
2016-05-24,7088,2527
2016-05-25,7062,2518
2016-05-26,7049,2522
2016-05-27,7007,2506
2016-05-28,6966,2531
2016-05-29,6981,2544
2016-05-30,6984,2533
2016-05-31,7008,2526
2016-06-01,7043,2542
2016-06-02,7081,2543
2016-06-03,7078,2588
2016-06-04,7111,2752
2016-06-05,7098,2868
2016-06-06,7110,2894
2016-06-07,7114,2917
2016-06-08,7095,2933
2016-06-09,7097,2915
2016-06-10,7109,2897
2016-06-11,7096,2905
2016-06-12,7108,2918
2016-06-13,7086,2899
2016-06-14,7056,2906
2016-06-15,7139,2893
2016-06-16,7113,2880
2016-06-17,7075,2878
2016-06-18,7051,2891
2016-06-19,7017,2891
2016-06-20,7036,2878
2016-06-21,7030,2875
2016-06-22,7008,2861
2016-06-23,7074,2843
2016-06-24,7093,2833
2016-06-25,7088,2852
2016-06-26,7099,2869
2016-06-27,7085,2863
2016-06-28,7079,2865
2016-06-29,7040,2843
2016-06-30,7057,2839
2016-07-01,7101,2858
2016-07-02,7093,2864
2016-07-03,7070,2889
2016-07-04,7069,2954
2016-07-05,7093,2941
2016-07-06,7028,2943
2016-07-07,6981,2937
2016-07-08,6983,2940
2016-07-09,6986,2956
2016-07-10,6999,2957
2016-07-11,6988,2939
2016-07-12,7004,2956
2016-07-13,6983,2961
2016-07-14,6948,2923
2016-07-15,6942,2914
2016-07-16,6968,2891
2016-07-17,6950,2875
2016-07-18,6941,2870
2016-07-19,6947,2858
2016-07-20,6953,2853
2016-07-21,6930,2848
2016-07-22,6892,2846
2016-07-23,6871,2841
2016-07-24,6879,2861
2016-07-25,6878,2863
2016-07-26,6911,2849
2016-07-27,6938,2846
2016-07-28,6951,2847
2016-07-29,6978,2853
2016-07-30,6962,2866
2016-07-31,6961,2883
2016-08-01,6981,2874
2016-08-02,6993,2863
2016-08-03,6968,2854
2016-08-04,7006,2859
2016-08-05,7017,2862
2016-08-06,7018,2872
2016-08-07,7005,2890
2016-08-08,7012,2889
2016-08-09,7008,2895
2016-08-10,7010,2842
2016-08-11,7002,2829
2016-08-12,6990,2823
2016-08-13,6974,2820
2016-08-14,6964,2821
2016-08-15,6975,2819
2016-08-16,6995,2832
2016-08-17,6990,2812
2016-08-18,6981,2801
2016-08-19,6950,2831
2016-08-20,6964,2838
2016-08-21,6979,2858
2016-08-22,6978,2860
2016-08-23,6990,2873
2016-08-24,7004,2852
2016-08-25,7004,2861
2016-08-26,7015,2823
2016-08-27,6974,2554
2016-08-28,7003,1992
2016-08-29,7005,1560
2016-08-30,7004,1493
2016-08-31,7014,1454
2016-09-01,7054,1443
2016-09-02,7072,1473
2016-09-03,7056,1603
2016-09-04,7124,1621
2016-09-05,7122,1630
2016-09-06,7108,1651
2016-09-07,7130,1683
2016-09-08,7136,1701
2016-09-09,7135,1710
2016-09-10,7149,1710
2016-09-11,7140,1719
2016-09-12,7124,1735
2016-09-13,7152,1745
2016-09-14,7142,1755
2016-09-15,7149,1766
2016-09-16,7152,1778
2016-09-17,7153,1787
2016-09-18,7175,1810
2016-09-19,7168,1834
2016-09-20,7190,1845
2016-09-21,7201,1796
2016-09-22,7207,1825
2016-09-23,7228,1845
2016-09-24,7241,1857
2016-09-25,7224,1863
2016-09-26,7216,1875
2016-09-27,7212,1874
2016-09-28,7199,1874
2016-09-29,7181,1887
2016-09-30,7186,1888
2016-10-01,7221,1899
2016-10-02,7238,1923
2016-10-03,7242,1934
2016-10-04,7242,1937
2016-10-05,7221,1942
2016-10-06,7203,1944
2016-10-07,7173,1950
2016-10-08,7206,1963
2016-10-09,7195,1973
2016-10-10,7170,1983
2016-10-11,7178,1993
2016-10-12,7157,1982
2016-10-13,7143,1992
2016-10-14,7129,2001
2016-10-15,7126,1997
2016-10-16,7138,2004
2016-10-17,7140,2021
2016-10-18,7120,2033
2016-10-19,7137,2041
2016-10-20,7117,2036
2016-10-21,7108,2039
2016-10-22,7074,2065
2016-10-23,7082,2066
2016-10-24,7079,2076
2016-10-25,7080,1993
2016-10-26,7115,1883
2016-10-27,7113,1885
2016-10-28,7111,2036
2016-10-29,7099,2107
2016-10-30,7091,2119
2016-10-31,7073,2123
2016-11-01,7146,2124
2016-11-02,7162,2133
2016-11-03,7132,2138
2016-11-04,7170,2149
2016-11-05,7168,2152
2016-11-06,7149,2155
2016-11-07,7114,2152
2016-11-08,7093,2147
2016-11-09,7078,2152
2016-11-10,7091,2157
2016-11-11,7125,2163
2016-11-12,7119,2167
2016-11-13,7116,2167
2016-11-14,7101,2163
2016-11-15,7101,2151
2016-11-16,7112,2172
2016-11-17,7117,2176
2016-11-18,7100,2180
2016-11-19,7118,2188
2016-11-20,7147,2194
2016-11-21,7126,2197
2016-11-22,7114,2195
2016-11-23,7106,2197
2016-11-24,7160,2207
2016-11-25,7163,2221
2016-11-26,7167,2243
2016-11-27,7154,2258
2016-11-28,7155,2269
2016-11-29,7162,2276
2016-11-30,7163,2278
2016-12-01,7200,2280
2016-12-02,7214,2283
2016-12-03,7232,2306
2016-12-04,7274,2318
2016-12-05,7217,2326
2016-12-06,7194,2333
2016-12-07,7186,2342
2016-12-08,7210,2356
2016-12-09,7214,2342
2016-12-10,7232,2337
2016-12-11,7237,2358
2016-12-12,7221,2368
2016-12-13,7202,2379
2016-12-14,7189,2380
2016-12-15,7172,2383
2016-12-16,7168,2394
2016-12-17,7188,2397
2016-12-18,7171,2401
2016-12-19,7155,2399
2016-12-20,7134,2398
2016-12-21,7132,2416
2016-12-22,7112,2415
2016-12-23,7114,2429
2016-12-24,7081,2442
2016-12-25,7066,2444
2016-12-26,7060,2446
2016-12-27,7087,2450
2016-12-28,7116,2459
2016-12-29,7107,2466
2016-12-30,7071,2472
2016-12-31,7055,2474
2017-01-01,7097,2480
2017-01-02,7118,2488
2017-01-03,7127,2494
2017-01-04,7156,2499
2017-01-05,7149,2509
2017-01-06,7172,2525
2017-01-07,7195,2529
2017-01-08,7202,2542
2017-01-09,7206,2555
2017-01-10,7212,2563
2017-01-11,7218,2566
2017-01-12,7230,2573
2017-01-13,7184,2580
2017-01-14,7198,2595
2017-01-15,7199,2548
2017-01-16,7205,2603
2017-01-17,7218,2611
2017-01-18,7228,2626
2017-01-19,7210,2628
2017-01-20,7199,2642
2017-01-21,7196,2659
2017-01-22,7206,2655
2017-01-23,7208,2650
2017-01-24,7206,2656
2017-01-25,7221,2665
2017-01-26,7228,2643
2017-01-27,7203,2682
2017-01-28,7202,2684
2017-01-29,7221,2696
2017-01-30,7199,2690
2017-01-31,7197,2692
2017-02-01,7224,2696
2017-02-02,7260,2701
2017-02-03,7284,2707
2017-02-04,7340,2715
2017-02-05,7346,2726
2017-02-06,7333,2727
2017-02-07,7350,2728
2017-02-08,7322,2732
2017-02-09,7299,2753
2017-02-10,7285,2754
2017-02-11,7277,2747
2017-02-12,7288,2743
2017-02-13,7263,2739
2017-02-14,7268,2732
2017-02-15,7249,2728
2017-02-16,7247,2730
2017-02-17,7250,2730
2017-02-18,7284,2728
2017-02-19,7310,2730
2017-02-20,7302,2735
2017-02-21,7298,2747
2017-02-22,7281,2737
2017-02-23,7281,2730
2017-02-24,7280,2630
2017-02-25,7286,2550
2017-02-26,7302,2556
2017-02-27,7261,2558
2017-02-28,7226,2564
2017-03-01,7264,2565
2017-03-02,7284,2571
2017-03-03,7278,2568
2017-03-04,7314,2573
2017-03-05,7333,2584
2017-03-06,7322,2593
2017-03-07,7353,2616
2017-03-08,7342,2614
2017-03-09,7323,2576
2017-03-10,7313,2630
2017-03-11,7315,2635
2017-03-12,7353,2633
2017-03-13,7350,2639
2017-03-14,7341,2645
2017-03-15,7325,2644
2017-03-16,7315,2653
2017-03-17,7308,2658
2017-03-18,7308,2655
2017-03-19,7315,2665
2017-03-20,7296,2664
2017-03-21,7277,2663
2017-03-22,7301,2651
2017-03-23,7296,2654
2017-03-24,7282,2670
2017-03-25,7289,2695
2017-03-26,7279,2716
2017-03-27,7283,2725
2017-03-28,7266,2735
2017-03-29,7289,2790
2017-03-30,7294,2885
2017-03-31,7302,2958
2017-04-01,7336,3023
2017-04-02,7359,3075
2017-04-03,7344,3114
2017-04-04,7400,3127
2017-04-05,7377,3147
2017-04-06,7363,3179
2017-04-07,7369,3212
2017-04-08,7382,3243
2017-04-09,7393,3263
2017-04-10,7361,3277
2017-04-11,7352,3261
2017-04-12,7355,3299
2017-04-13,7353,3303
2017-04-14,7377,3370
2017-04-15,7386,3397
2017-04-16,7374,3418
2017-04-17,7371,3443
2017-04-18,7360,3456
2017-04-19,7359,3453
2017-04-20,7359,3454
2017-04-21,7345,3462
2017-04-22,7359,3472
2017-04-23,7365,3474
2017-04-24,7351,3506
2017-04-25,7346,3525
2017-04-26,7284,3520
2017-04-27,7266,3520
2017-04-28,7274,3522
2017-04-29,7276,3527
2017-04-30,7249,3530
2017-05-01,7282,3542
2017-05-02,7365,3550
2017-05-03,7341,3549
2017-05-04,7370,3543
2017-05-05,7368,3547
2017-05-06,7370,3554
2017-05-07,7365,3529
2017-05-08,7348,3580
2017-05-09,7274,3593
2017-05-10,7278,3603
2017-05-11,7242,3611
2017-05-12,7239,3613
2017-05-13,7271,3627
2017-05-14,7227,3639
2017-05-15,7163,3637
2017-05-16,7148,3637
2017-05-17,7158,3636
2017-05-18,7155,3633
2017-05-19,7218,3629
2017-05-20,7255,3635
2017-05-21,7250,3645
2017-05-22,7243,3649
2017-05-23,7205,3650
2017-05-24,7190,3654
2017-05-25,7198,3651
2017-05-26,7184,3635
2017-05-27,7157,3621
2017-05-28,7149,3619
2017-05-29,7064,3610
2017-05-30,7061,3595
2017-05-31,7063,3590
2017-06-01,7126,3588
2017-06-02,7126,3583
2017-06-03,7147,3561
2017-06-04,7177,3549
2017-06-05,7190,3548
2017-06-06,7199,3541
2017-06-07,7199,3526
2017-06-08,7202,3512
2017-06-09,7177,3509
2017-06-10,7190,3504
2017-06-11,7178,3502
2017-06-12,7172,3497
2017-06-13,7186,3484
2017-06-14,7197,3470
2017-06-15,7180,3465
2017-06-16,7164,3463
2017-06-17,7186,3449
2017-06-18,7184,3414
2017-06-19,7169,3213
2017-06-20,7175,3154
2017-06-21,7183,3155
2017-06-22,7171,3144
2017-06-23,7182,3139
2017-06-24,7191,3152
2017-06-25,7178,3140
2017-06-26,7127,3128
2017-06-27,7122,3117
2017-06-28,7074,3097
2017-06-29,7048,3106
2017-06-30,7057,3100
2017-07-01,7152,3102
2017-07-02,7161,3092
2017-07-03,7116,3078
2017-07-04,7138,3065
2017-07-05,7140,3048
2017-07-06,7137,3027
2017-07-07,7094,3020
2017-07-08,7056,3011
2017-07-09,7049,3008
2017-07-10,7046,2982
2017-07-11,7057,2980
2017-07-12,7070,2977
2017-07-13,7025,2971
2017-07-14,7022,2960
2017-07-15,7007,2954
2017-07-16,6992,2956
2017-07-17,6966,2955
2017-07-18,6968,2947
2017-07-19,6969,2935
2017-07-20,6921,2924
2017-07-21,6922,2913
2017-07-22,6915,2912
2017-07-23,6909,2906
2017-07-24,6910,2895
2017-07-25,6932,2888
2017-07-26,6924,2870
2017-07-27,6918,2860
2017-07-28,6902,2856
2017-07-29,6884,2835
2017-07-30,6866,2826
2017-07-31,6839,2815
2017-08-01,6908,2809
2017-08-02,6910,2807
2017-08-03,6907,2795
2017-08-04,6942,2788
2017-08-05,6958,2786
2017-08-06,6955,2787
2017-08-07,6913,2787
2017-08-08,6929,2776
2017-08-09,6955,2738
2017-08-10,6958,2760
2017-08-11,6949,2755
2017-08-12,6929,2748
2017-08-13,6926,2755
2017-08-14,6909,2209
2017-08-15,6899,1574
2017-08-16,6882,2725
2017-08-17,6840,2725
2017-08-18,6835,2730
2017-08-19,6839,2725
2017-08-20,6843,2737
2017-08-21,6812,2514
2017-08-22,6840,2483
2017-08-23,6826,2480
2017-08-24,6884,2476
2017-08-25,6884,2472
2017-08-26,6870,2479
2017-08-27,6845,2476
2017-08-28,6808,2471
2017-08-29,6811,2470
2017-08-30,6810,2475
2017-08-31,6832,2473
2017-09-01,6925,2463
2017-09-02,6961,2743
2017-09-03,6936,3593
2017-09-04,6929,3632
2017-09-05,6931,3577
2017-09-06,6920,3574
2017-09-07,6918,3545
2017-09-08,6884,3514
2017-09-09,6908,3604
2017-09-10,6896,3657
2017-09-11,6850,3621
2017-09-12,6854,3547
2017-09-13,6833,3478
2017-09-14,6821,3660
2017-09-15,6868,2247
2017-09-16,6852,3504
2017-09-17,6860,3302
2017-09-18,6829,3274
2017-09-19,6820,3085
2017-09-20,6786,2516
2017-09-21,6775,2481
2017-09-22,6758,2506
2017-09-23,6754,2518
2017-09-24,6752,2489
2017-09-25,6717,2439
2017-09-26,6700,2430
2017-09-27,6689,2420
2017-09-28,6668,2388
2017-09-29,6611,2378
2017-09-30,6582,2384
2017-10-01,6718,2388
2017-10-02,6690,2382
2017-10-03,6698,2381
2017-10-04,6694,2381
2017-10-05,6690,2373
2017-10-06,6671,2370
2017-10-07,6666,2371
2017-10-08,6672,2370
2017-10-09,6659,2367
2017-10-10,6634,2368
2017-10-11,6638,2368
2017-10-12,6622,2386
2017-10-13,6620,2425
2017-10-14,6622,2423
2017-10-15,6633,2425
2017-10-16,6612,2426
2017-10-17,6629,2432
2017-10-18,6633,2364
2017-10-19,6624,2356
2017-10-20,6607,2354
2017-10-21,6599,2349
2017-10-22,6603,2334
2017-10-23,6570,2333
2017-10-24,6522,2341
2017-10-25,6512,2347
2017-10-26,6516,2345
2017-10-27,6537,2346
2017-10-28,6537,2344
2017-10-29,6557,2215
2017-10-30,6515,2089
2017-10-31,6448,2089
2017-11-01,6560,2096
2017-11-02,6598,2098
2017-11-03,6595,2091
2017-11-04,6630,2078
2017-11-05,6624,2074
2017-11-06,6619,2075
2017-11-07,6606,2072
2017-11-08,6601,2069
2017-11-09,6567,2060
2017-11-10,6589,2065
2017-11-11,6588,2065
2017-11-12,6553,2050
2017-11-13,6540,2054
2017-11-14,6544,2055
2017-11-15,6511,2055
2017-11-16,6506,2051
2017-11-17,6543,2054
2017-11-18,6539,2057
2017-11-19,6539,2061
2017-11-20,6540,2065
2017-11-21,6526,2032
2017-11-22,6585,2021
2017-11-23,6570,2025
2017-11-24,6515,2176
2017-11-25,6521,2183
2017-11-26,6543,2193
2017-11-27,6546,2190
2017-11-28,6549,1965
2017-11-29,6534,1954
2017-11-30,6512,1955
2017-12-01,6629,1959
2017-12-02,6647,1963
2017-12-03,6650,1976
2017-12-04,6649,1956
2017-12-05,6671,1954
2017-12-06,6706,1953
2017-12-07,6647,1978
2017-12-08,6668,2171
2017-12-09,6644,
2017-12-10,6666,
2017-12-11,6639,
2017-12-12,6590,2038
2017-12-13,6565,2153
2017-12-14,6477,2203
2017-12-15,6406,2147
2017-12-16,6365,2142
2017-12-17,6351,2143
2017-12-18,6327,2137
2017-12-19,6271,2134
2017-12-20,6269,2129
2017-12-21,6270,2114
2017-12-22,6263,2114
2017-12-23,6295,2105
2017-12-24,6287,2107
2017-12-25,6259,2101
2017-12-26,6221,2108
2017-12-27,6179,2113
2017-12-28,6190,2112
2017-12-29,6150,2114
2017-12-30,6138,2107
2017-12-31,6110,2104
2018-01-01,6276,2107
2018-01-02,6276,2105
2018-01-03,6258,2102
2018-01-04,6273,2096
2018-01-05,6235,2084
2018-01-06,6220,2075
2018-01-07,6209,2126
2018-01-08,6184,2125
2018-01-09,6177,2128
2018-01-10,6180,2127
2018-01-11,6166,2128
2018-01-12,6153,2127
2018-01-13,6143,2133
2018-01-14,6128,2134
2018-01-15,6080,2134
2018-01-16,6068,2124
2018-01-17,6070,2128
2018-01-18,6079,2120
2018-01-19,6063,2109
2018-01-20,6056,2109
2018-01-21,6073,2105
2018-01-22,6032,2102
2018-01-23,6041,2109
2018-01-24,6040,2101
2018-01-25,6066,2092
2018-01-26,6083,2084
2018-01-27,6061,2084
2018-01-28,6037,2078
2018-01-29,6039,2074
2018-01-30,6037,2064
2018-01-31,6006,2054
2018-02-01,6143,2058
2018-02-02,6171,2054
2018-02-03,6210,2060
2018-02-04,6237,2063
2018-02-05,6206,2064
2018-02-06,6247,2063
2018-02-07,6227,2057
2018-02-08,6228,2057
2018-02-09,6207,2052
2018-02-10,6176,2034
2018-02-11,6173,2030
2018-02-12,6106,1960
2018-02-13,6079,2033
2018-02-14,6067,2030
2018-02-15,6058,2028
2018-02-16,6049,2022
2018-02-17,6042,2022
2018-02-18,6069,2021
2018-02-19,6047,2028
2018-02-20,6042,2023
2018-02-21,6067,2019
2018-02-22,6040,2016
2018-02-23,6055,2013
2018-02-24,6038,2015
2018-02-25,6039,2006
2018-02-26,6017,1996
2018-02-27,5975,2001
2018-02-28,5891,1999
2018-03-01,5995,1988
2018-03-02,6093,1988
2018-03-03,6089,1990
2018-03-04,6093,1983
2018-03-05,6082,1984
2018-03-06,6098,1985
2018-03-07,6121,1991
2018-03-08,6133,1992
2018-03-09,6171,1986
2018-03-10,6216,1981
2018-03-11,6239,1984
2018-03-12,6199,1982
2018-03-13,6201,1975
2018-03-14,6224,1973
2018-03-15,6221,1972
2018-03-16,6205,1967
2018-03-17,6232,1972
2018-03-18,6256,1971
2018-03-19,6220,1973
2018-03-20,6233,1964
2018-03-21,6248,1966
2018-03-22,6247,1962
2018-03-23,6234,1964
2018-03-24,6243,1962
2018-03-25,6247,1962
2018-03-26,6219,1967
2018-03-27,6272,1959
2018-03-28,6291,1964
2018-03-29,6256,1951
2018-03-30,6268,1948
2018-03-31,6272,1938
2018-04-01,6400,1934
2018-04-02,6424,1938
2018-04-03,6428,1936
2018-04-04,6430,1930
2018-04-05,6449,1917
2018-04-06,6461,1908
2018-04-07,6470,1913
2018-04-08,6440,1909
2018-04-09,6386,1903
2018-04-10,6403,1902
2018-04-11,6387,1904
2018-04-12,6386,1901
2018-04-13,6394,1894
2018-04-14,6409,1898
2018-04-15,6418,1885
2018-04-16,6403,1810
2018-04-17,6418,1655
2018-04-18,6420,1646
2018-04-19,6425,1648
2018-04-20,6427,1646
2018-04-21,6421,1651
2018-04-22,6425,1663
2018-04-23,6416,1663
2018-04-24,6423,1665
2018-04-25,6425,1667
2018-04-26,6429,1660
2018-04-27,6431,1652
2018-04-28,6400,1662
2018-04-29,6414,1654
2018-04-30,6402,1651
2018-05-01,6479,1657
2018-05-02,6464,1652
2018-05-03,6434,1639
2018-05-04,6438,1639
2018-05-05,6468,1641
2018-05-06,6463,1649
2018-05-07,6406,1645
2018-05-08,6426,1637
2018-05-09,6458,1641
2018-05-10,6464,1643
2018-05-11,6456,1633
2018-05-12,6467,1639
2018-05-13,6512,1644
2018-05-14,6479,1633
2018-05-15,6471,1632
2018-05-16,6462,1633
2018-05-17,6449,1628
2018-05-18,6445,1624
2018-05-19,6465,1626
2018-05-20,6498,1625
2018-05-21,6466,1625
2018-05-22,6450,1626
2018-05-23,6439,1630
2018-05-24,6417,1629
2018-05-25,6388,1621
2018-05-26,6383,1626
2018-05-27,6388,1632
2018-05-28,6370,1634
2018-05-29,6343,1637
2018-05-30,6349,1635
2018-05-31,6331,1632
2018-06-01,6402,1639
2018-06-02,6421,1645
2018-06-03,6416,1643
2018-06-04,6418,1651
2018-06-05,6409,1650
2018-06-06,6408,1645
2018-06-07,6402,1639
2018-06-08,6379,1637
2018-06-09,6380,1636
2018-06-10,6370,1628
2018-06-11,6362,1630
2018-06-12,6335,1631
2018-06-13,6333,1633
2018-06-14,6338,1637
2018-06-15,6348,1630
2018-06-16,6346,1626
2018-06-17,6349,1622
2018-06-18,6352,1619
2018-06-19,6356,1619
2018-06-20,6339,1617
2018-06-21,6318,1612
2018-06-22,6352,1612
2018-06-23,6342,1609
2018-06-24,6353,1613
2018-06-25,6344,1621
2018-06-26,6335,1614
2018-06-27,6355,1615
2018-06-28,6351,1620
2018-06-29,6333,1615
2018-06-30,6337,1604
2018-07-01,6455,1618
2018-07-02,6492,1619
2018-07-03,6489,1617
2018-07-04,6506,1611
2018-07-05,6503,1606
2018-07-06,6490,1602
2018-07-07,6486,
2018-07-08,6476,
2018-07-09,6469,
2018-07-10,6462,
2018-07-11,6462,
2018-07-12,6460,
2018-07-13,6465,2
2018-07-14,6455,36
2018-07-15,6453,123
2018-07-16,6450,161
2018-07-17,6453,222
2018-07-18,6470,284
2018-07-19,6460,342
2018-07-20,6468,404
2018-07-21,6456,493
2018-07-22,6446,543
2018-07-23,6421,553
2018-07-24,6399,559
2018-07-25,6359,564
2018-07-26,6326,582
2018-07-27,6345,592
2018-07-28,6320,603
2018-07-29,6288,610
2018-07-30,6296,613
2018-07-31,6304,616
2018-08-01,6413,580
2018-08-02,6426,621
2018-08-03,6423,624
2018-08-04,6409,627
2018-08-05,6364,631
2018-08-06,6438,637
2018-08-07,6450,638
2018-08-08,6450,642
2018-08-09,6423,646
2018-08-10,6405,649
2018-08-11,6398,653
2018-08-12,6393,656
2018-08-13,6357,658
2018-08-14,6342,660
2018-08-15,6339,659
2018-08-16,6344,657
2018-08-17,6350,656
2018-08-18,6345,660
2018-08-19,6366,667
2018-08-20,6376,669
2018-08-21,6355,663
2018-08-22,6336,654
2018-08-23,6328,655
2018-08-24,6349,658
2018-08-25,6373,660
2018-08-26,6358,663
2018-08-27,6349,661
2018-08-28,6329,659
2018-08-29,6319,661
2018-08-30,6310,662
2018-08-31,6293,657
2018-09-01,6392,662
2018-09-02,6406,671
2018-09-03,6403,676
2018-09-04,6409,681
2018-09-05,6400,678
2018-09-06,6406,678
2018-09-07,6396,679
2018-09-08,6400,680
2018-09-09,6428,617
2018-09-10,6415,682
2018-09-11,6417,778
2018-09-12,6428,794
2018-09-13,6424,794
2018-09-14,6421,798
2018-09-15,6424,804
2018-09-16,6453,819
2018-09-17,6418,816
2018-09-18,6384,807
2018-09-19,6362,812
2018-09-20,6389,815
2018-09-21,6367,812
2018-09-22,6365,820
2018-09-23,6388,823
2018-09-24,6375,820
2018-09-25,6379,808
2018-09-26,6376,747
2018-09-27,6370,822
2018-09-28,6329,827
2018-09-29,6331,824
2018-09-30,6356,823
2018-10-01,6440,819
2018-10-02,6418,825
2018-10-03,6427,821
2018-10-04,6431,825
2018-10-05,6439,834
2018-10-06,6448,835
2018-10-07,6470,849
2018-10-08,6449,846
2018-10-09,6417,844
2018-10-10,6366,852
2018-10-11,6366,847
2018-10-12,6379,842
2018-10-13,6410,843
2018-10-14,6411,842
2018-10-15,6411,849
2018-10-16,6418,850
2018-10-17,6441,848
2018-10-18,6428,845
2018-10-19,6400,843
2018-10-20,6395,854
2018-10-21,6418,856
2018-10-22,6418,853
2018-10-23,6381,853
2018-10-24,6381,849
2018-10-25,6382,856
2018-10-26,6371,855
2018-10-27,6345,859
2018-10-28,6371,865
2018-10-29,6346,873
2018-10-30,6334,869
2018-10-31,6343,863
2018-11-01,6436,871
2018-11-02,6454,888
2018-11-03,6475,887
2018-11-04,6471,886
2018-11-05,6479,884
2018-11-06,6476,885
2018-11-07,6465,886
2018-11-08,6455,890
2018-11-09,6457,893
2018-11-10,6472,895
2018-11-11,6456,911
2018-11-12,6413,911
2018-11-13,6414,913
2018-11-14,6413,913
2018-11-15,6433,917
2018-11-16,6446,919
2018-11-17,6463,918
2018-11-18,6461,928
2018-11-19,6421,926
2018-11-20,6401,932
2018-11-21,6365,925
2018-11-22,6330,922
2018-11-23,6338,934
2018-11-24,6360,938
2018-11-25,6389,940
2018-11-26,6374,938
2018-11-27,6373,936
2018-11-28,6355,933
2018-11-29,6347,935
2018-11-30,6336,931
2018-12-01,6451,941
2018-12-02,6469,949
2018-12-03,6443,948
2018-12-04,6423,940
2018-12-05,6423,945
2018-12-06,6410,960
2018-12-07,6407,956
2018-12-08,6472,959
2018-12-09,6489,957
2018-12-10,6440,953
2018-12-11,6465,960
2018-12-12,6449,961
2018-12-13,6440,970
2018-12-14,6438,963
2018-12-15,6444,965
2018-12-16,6458,969
2018-12-17,6416,968
2018-12-18,6418,954
2018-12-19,6438,928
2018-12-20,6442,928
2018-12-21,6445,933
2018-12-22,6441,935
2018-12-23,6421,939
2018-12-24,6399,939
2018-12-25,6363,932
2018-12-26,6396,934
2018-12-27,6391,939
2018-12-28,6355,931
2018-12-29,6365,934
2018-12-30,6092,817
2018-12-31,6058,804
2019-01-01,6172,815
2019-01-02,6213,821
2019-01-03,6246,826
2019-01-04,6270,825
2019-01-05,6263,823
2019-01-06,6297,828
2019-01-07,6305,833
2019-01-08,6301,837
2019-01-09,6282,833
2019-01-10,6256,832
2019-01-11,6497,934
2019-01-12,6594,968
2019-01-13,6547,936
2019-01-14,6620,914
2019-01-15,6575,956
2019-01-16,6529,952
2019-01-17,6511,947
2019-01-18,6555,951
2019-01-19,6551,962
2019-01-20,6587,971
2019-01-21,6539,969
2019-01-22,6527,964
2019-01-23,6527,965
2019-01-24,6531,960
2019-01-25,6513,959
2019-01-26,6510,973
2019-01-27,6521,972
2019-01-28,6527,963
2019-01-29,6523,958
2019-01-30,6504,957
2019-01-31,6501,951
2019-02-01,6624,950
2019-02-02,6663,952
2019-02-03,6658,948
2019-02-04,6654,951
2019-02-05,6654,941
2019-02-06,6590,910
2019-02-07,6659,895
2019-02-08,6617,949
2019-02-09,6586,962
2019-02-10,6614,970
2019-02-11,6574,962
2019-02-12,6567,961
2019-02-13,6518,952
2019-02-14,6504,953
2019-02-15,6507,943
2019-02-16,6469,947
2019-02-17,6467,953
2019-02-18,6470,955
2019-02-19,6456,956
2019-02-20,6455,951
2019-02-21,6469,951
2019-02-22,6461,942
2019-02-23,6482,950
2019-02-24,6490,959
2019-02-25,6465,956
2019-02-26,6430,950
2019-02-27,6459,954
2019-02-28,6459,959
2019-03-01,6570,965
2019-03-02,6592,971
2019-03-03,6585,987
2019-03-04,6588,977
2019-03-05,6580,972
2019-03-06,6606,978
2019-03-07,6625,978
2019-03-08,6621,971
2019-03-09,6610,978
2019-03-10,6603,979
2019-03-11,6591,973
2019-03-12,6579,965
2019-03-13,6574,974
2019-03-14,6585,976
2019-03-15,6588,975
2019-03-16,6586,974
2019-03-17,6601,980
2019-03-18,6618,981
2019-03-19,6628,979
2019-03-20,6590,968
2019-03-21,6570,972
2019-03-22,6536,973
2019-03-23,6531,978
2019-03-24,6529,980
2019-03-25,6505,975
2019-03-26,6514,977
2019-03-27,6497,969
2019-03-28,6473,970
2019-03-29,6460,964
2019-03-30,6499,970
2019-03-31,6514,948
2019-04-01,6626,943
2019-04-02,6615,954
2019-04-03,6630,971
2019-04-04,6652,965
2019-04-05,6625,968
2019-04-06,6662,975
2019-04-07,6646,984
2019-04-08,6638,983
2019-04-09,6643,983
2019-04-10,6644,985
2019-04-11,6647,986
2019-04-12,6645,986
2019-04-13,6672,997
2019-04-14,6674,1005
2019-04-15,6669,995
2019-04-16,6662,989
2019-04-17,6640,984
2019-04-18,6650,979
2019-04-19,6655,981
2019-04-20,6658,986
2019-04-21,6645,989
2019-04-22,6638,994
2019-04-23,6645,987
2019-04-24,6640,988
2019-04-25,6601,983
2019-04-26,6588,990
2019-04-27,6588,1006
2019-04-28,6568,1010
2019-04-29,6561,1002
2019-04-30,6557,1001
2019-05-01,6672,1010
2019-05-02,6674,1002
2019-05-03,6655,1002
2019-05-04,6666,1006
2019-05-05,6659,1009
2019-05-06,6653,1011
2019-05-07,6638,1008
2019-05-08,6649,1023
2019-05-09,6652,1030
2019-05-10,6638,1036
2019-05-11,6642,1052
2019-05-12,6639,1055
2019-05-13,6627,1049
2019-05-14,6615,1039
2019-05-15,6629,1039
2019-05-16,6598,1037
2019-05-17,6571,1041
2019-05-18,6581,1045
2019-05-19,6581,1036
2019-05-20,6561,1038
2019-05-21,6554,1027
2019-05-22,6552,1030
2019-05-23,6530,1029
2019-05-24,6522,1031
2019-05-25,6554,1037
2019-05-26,6544,1048
2019-05-27,6546,1040
2019-05-28,6531,1042
2019-05-29,6524,1035
2019-05-30,6518,1045
2019-05-31,6516,1033
2019-06-01,6596,1045
2019-06-02,6598,1041
2019-06-03,6616,1037
2019-06-04,6602,1031
2019-06-05,6595,1025
2019-06-06,6586,1031
2019-06-07,6590,1033
2019-06-08,6591,1029
2019-06-09,6602,1035
2019-06-10,6600,1037
2019-06-11,6566,1033
2019-06-12,6541,1027
2019-06-13,6534,1031
2019-06-14,6524,1020
2019-06-15,6535,1026
2019-06-16,6535,1030
2019-06-17,6529,1033
2019-06-18,6485,1025
2019-06-19,6470,1024
2019-06-20,6477,1017
2019-06-21,6469,1010
2019-06-22,6460,1022
2019-06-23,6462,1024
2019-06-24,6448,1025
2019-06-25,6418,1019
2019-06-26,6363,1022
2019-06-27,6375,1024
2019-06-28,6364,1014
2019-06-29,6361,1014
2019-06-30,6378,1021
2019-07-01,6463,1027
2019-07-02,6436,1042
2019-07-03,6453,1039
2019-07-04,6453,1041
2019-07-05,6449,1040
2019-07-06,6536,1042
2019-07-07,6553,1035
2019-07-08,6535,1050
2019-07-09,6533,1048
2019-07-10,6525,1042
2019-07-11,6543,1042
2019-07-12,6545,1044
2019-07-13,6557,1041
2019-07-14,6562,1040
2019-07-15,6527,1040
2019-07-16,6493,1041
2019-07-17,6427,1054
2019-07-18,6415,1055
2019-07-19,6415,1063
2019-07-20,6412,1056
2019-07-21,6462,1061
2019-07-22,6433,1065
2019-07-23,6442,1068
2019-07-24,6464,1058
2019-07-25,6464,1051
2019-07-26,6432,1051
2019-07-27,6441,1055
2019-07-28,6446,1055
2019-07-29,6433,1054
2019-07-30,6429,1059
2019-07-31,6437,1054
2019-08-01,6515,1062
2019-08-02,6517,1051
2019-08-03,6521,1066
2019-08-04,6515,1068
2019-08-05,6528,1070
2019-08-06,6533,1068
2019-08-07,6531,1069
2019-08-08,6521,1068
2019-08-09,6513,1068
2019-08-10,6516,1083
2019-08-11,6523,1079
2019-08-12,6532,1077
2019-08-13,6566,1073
2019-08-14,6543,1072
2019-08-15,6538,1072
2019-08-16,6526,1081
2019-08-17,6514,1081
2019-08-18,6516,1082
2019-08-19,6540,1079
2019-08-20,6549,1074
2019-08-21,6584,1072
2019-08-22,6567,1077
2019-08-23,6549,1078
2019-08-24,6525,1079
2019-08-25,6532,1084
2019-08-26,6519,1082
2019-08-27,6499,1078
2019-08-28,6491,1076
2019-08-29,6498,1093
2019-08-30,6527,1100
2019-08-31,6515,1100
2019-09-01,6599,1128
2019-09-02,6622,1124
2019-09-03,6636,1129
2019-09-04,6617,1136
2019-09-05,6585,1146
2019-09-06,6551,1144
2019-09-07,6439,1105
2019-09-08,6385,1088
2019-09-09,6352,1085
2019-09-10,6445,1133
2019-09-11,6497,1150
2019-09-12,6526,1150
2019-09-13,6524,1147
2019-09-14,6518,1154
2019-09-15,6535,1161
2019-09-16,6530,1157
2019-09-17,6474,1160
2019-09-18,6452,1160
2019-09-19,6440,1157
2019-09-20,6440,1169
2019-09-21,6449,1187
2019-09-22,6438,1189
2019-09-23,6408,1176
2019-09-24,6379,1180
2019-09-25,6373,1179
2019-09-26,6413,1182
2019-09-27,6395,1186
2019-09-28,6399,1196
2019-09-29,6419,1196
2019-09-30,6453,1194
2019-10-01,6502,1225
2019-10-02,6492,1239
2019-10-03,6460,1225
2019-10-04,6412,1242
2019-10-05,6401,1252
2019-10-06,6396,1253
2019-10-07,6401,1253
2019-10-08,6093,1238
2019-10-09,5628,1239
2019-10-10,5635,1236
2019-10-11,5643,1234
2019-10-12,5698,1244
2019-10-13,5722,1245
2019-10-14,5753,1240
2019-10-15,5753,1235
2019-10-16,5754,1240
2019-10-17,5773,1241
2019-10-18,5808,1236
2019-10-19,5892,1239
2019-10-20,5906,1238
2019-10-21,5915,1225
2019-10-22,5945,1224
2019-10-23,5973,1224
2019-10-24,5983,1213
2019-10-25,5991,1208
2019-10-26,5998,1207
2019-10-27,6010,1201
2019-10-28,5981,1203
2019-10-29,5990,1207
2019-10-30,5991,1196
2019-10-31,5989,1187
2019-11-01,6082,1214
2019-11-02,6103,1232
2019-11-03,6109,1246
2019-11-04,6061,1247
2019-11-05,5862,1228
2019-11-06,5973,1157
2019-11-07,5972,1249
2019-11-08,5961,1248
2019-11-09,5994,1261
2019-11-10,6007,1261
2019-11-11,6018,1260
2019-11-12,6011,1256
2019-11-13,6020,1261
2019-11-14,6011,1252
2019-11-15,5992,1250
2019-11-16,5995,1117
2019-11-17,5993,1210
2019-11-18,6015,1268
2019-11-19,6025,1273
2019-11-20,6045,1266
2019-11-21,6066,1266
2019-11-22,6064,1263
2019-11-23,6107,1266
2019-11-24,6129,1273
2019-11-25,6130,1258
2019-11-26,6142,1257
2019-11-27,6150,1225
2019-11-28,6146,1251
2019-11-29,6127,1256
2019-11-30,6125,1241
2019-12-01,6213,1265
2019-12-02,6220,1277
2019-12-03,6210,1263
2019-12-04,6217,1259
2019-12-05,6220,1264
2019-12-06,6234,1271
2019-12-07,6241,1278
2019-12-08,6261,1291
2019-12-09,6256,1280
2019-12-10,6240,1277
2019-12-11,6245,1271
2019-12-12,6262,1268
2019-12-13,6274,1281
2019-12-14,6317,1281
2019-12-15,6322,1292
2019-12-16,6307,1280
2019-12-17,6308,1293
2019-12-18,6288,1298
2019-12-19,6203,1286
2019-12-20,6196,1275
2019-12-21,6211,1285
2019-12-22,6230,1314
2019-12-23,6244,1305
2019-12-24,6244,1287
2019-12-25,6236,1274
2019-12-26,6253,1299
2019-12-27,6293,1310
2019-12-28,6315,1305
2019-12-29,6305,1309
2019-12-30,6290,1314
2019-12-31,6267,1304
2020-01-01,6354,1324
2020-01-02,6393,1345
2020-01-03,6397,1344
2020-01-04,6433,1347
2020-01-05,6445,1349
2020-01-06,6433,1342
2020-01-07,6307,1354
2020-01-08,6343,1342
2020-01-09,6348,1340
2020-01-10,6334,1332
2020-01-11,6300,1324
2020-01-12,6285,1321
2020-01-13,6298,1289
2020-01-14,6301,1323
2020-01-15,6311,1323
2020-01-16,6285,1329
2020-01-17,6253,1325
2020-01-18,6282,1333
2020-01-19,6298,1333
2020-01-20,6324,1336
2020-01-21,6340,1342
2020-01-22,6302,1333
2020-01-23,6300,1325
2020-01-24,6235,1325
2020-01-25,6252,1319
2020-01-26,6274,1315
2020-01-27,6264,1299
2020-01-28,6286,1303
2020-01-29,6314,1313
2020-01-30,6319,1309
2020-01-31,6346,1316
2020-02-01,6411,1339
2020-02-02,6513,1348
2020-02-03,6485,1342
2020-02-04,6401,1333
2020-02-05,6414,1331
2020-02-06,6388,1328
2020-02-07,6331,1320
2020-02-08,6341,1335
2020-02-09,6383,1329
2020-02-10,6385,1322
2020-02-11,6442,1316
2020-02-12,6477,1316
2020-02-13,6474,1318
2020-02-14,6460,1319
2020-02-15,6480,1324
2020-02-16,6650,1322
2020-02-17,6494,1324
2020-02-18,6496,1322
2020-02-19,6416,1317
2020-02-20,6408,1321
2020-02-21,6403,1314
2020-02-22,6421,1321
2020-02-23,6443,1334
2020-02-24,6445,1328
2020-02-25,6448,1330
2020-02-26,6425,1330
2020-02-27,6432,1322
2020-02-28,6427,1316
2020-02-29,6448,1319
2020-03-01,6514,1334
2020-03-02,6510,1332
2020-03-03,6516,1325
2020-03-04,6551,1326
2020-03-05,6547,1297
2020-03-06,6513,1330
2020-03-07,6504,1335
2020-03-08,6516,1344
2020-03-09,6529,1343
2020-03-10,6539,1343
2020-03-11,6537,1339
2020-03-12,6547,1350
2020-03-13,6559,1344
2020-03-14,6557,1344
2020-03-15,6591,1350
2020-03-16,6693,1348
2020-03-17,6615,1365
2020-03-18,6584,1366
2020-03-19,6688,1366
2020-03-20,6837,1366
2020-03-21,6835,1352
2020-03-22,6858,1350
2020-03-23,6864,1346
2020-03-24,6858,1355
2020-03-25,6845,1351
2020-03-26,6844,1357
2020-03-27,6868,1354
2020-03-28,6830,1340
2020-03-29,6830,1338
2020-03-30,6843,1345
2020-03-31,6909,1346
2020-04-01,6977,1359
2020-04-02,6999,1357
2020-04-03,7030,1354
2020-04-04,6965,1343
2020-04-05,6916,1346
2020-04-06,6996,1352
2020-04-07,7002,1359
2020-04-08,6984,1342
2020-04-09,6961,1311
2020-04-10,6911,1332
2020-04-11,6859,1295
2020-04-12,6827,1317
2020-04-13,6881,1326
2020-04-14,6895,1326
2020-04-15,6878,1316
2020-04-16,6849,1307
2020-04-17,6881,1303
2020-04-18,6850,1299
2020-04-19,6831,1296
2020-04-20,6812,1303
2020-04-21,6772,1276
2020-04-22,6740,1303
2020-04-23,6707,1300
2020-04-24,6713,1290
2020-04-25,6712,1288
2020-04-26,6695,1294
2020-04-27,6711,1302
2020-04-28,6717,1305
2020-04-29,6665,1291
2020-04-30,6666,1301
2020-05-01,6782,1311
2020-05-02,6789,1313
2020-05-03,6780,1317
2020-05-04,6820,1325
2020-05-05,6852,1332
2020-05-06,6876,1329
2020-05-07,6869,1344
2020-05-08,6695,1278
2020-05-09,6628,1264
2020-05-10,6603,1263
2020-05-11,6575,1255
2020-05-12,6554,1235
2020-05-13,6536,1230
2020-05-14,6540,1227
2020-05-15,6531,1221
2020-05-16,6494,1213
2020-05-17,6470,1212
2020-05-18,6456,1207
2020-05-19,6478,1206
2020-05-20,6297,1214
2020-05-21,6135,1217
2020-05-22,6024,1222
2020-05-23,6022,1225
2020-05-24,6018,1225
2020-05-25,6033,1232
2020-05-26,6069,1239
2020-05-27,6115,1243
2020-05-28,6116,1257
2020-05-29,6141,1294
2020-05-30,6128,1287
2020-05-31,6129,1289
2020-06-01,6264,1306
2020-06-02,6311,1304
2020-06-03,6315,1299
2020-06-04,6312,1304
2020-06-05,6308,1316
2020-06-06,6300,1317
2020-06-07,6317,1324
2020-06-08,6318,1331
2020-06-09,6299,1339
2020-06-10,6285,1342
2020-06-11,6239,1336
2020-06-12,6228,1341
2020-06-13,6215,1341
2020-06-14,6253,1340
2020-06-15,6264,1345
2020-06-16,6247,1355
2020-06-17,6226,1350
2020-06-18,6202,1354
2020-06-19,6212,1343
2020-06-20,6239,1340
2020-06-21,6254,1352
2020-06-22,6097,1353
2020-06-23,6119,1350
2020-06-24,6138,1349
2020-06-25,6157,1355
2020-06-26,6131,1359
2020-06-27,6144,1358
2020-06-28,6148,1355
2020-06-29,6187,1364
2020-06-30,6181,1365
2020-07-01,6377,1365
2020-07-02,6419,1368
2020-07-03,6437,1364
2020-07-04,6451,1368
2020-07-05,6451,1357
2020-07-06,6481,1352
2020-07-07,6490,1354
2020-07-08,6506,1358
2020-07-09,6532,1361
2020-07-10,6514,1358
2020-07-11,6491,1360
2020-07-12,6437,1361
2020-07-13,6439,1368
2020-07-14,6433,1367
2020-07-15,6441,1364
2020-07-16,6440,1367
2020-07-17,6430,1366
2020-07-18,6416,1380
2020-07-19,6409,1458
2020-07-20,6421,1580
2020-07-21,6349,1584
2020-07-22,6313,1586
2020-07-23,6305,1588
2020-07-24,6301,1588
2020-07-25,6409,1578
2020-07-26,6411,1581
2020-07-27,6386,1577
2020-07-28,6379,1573
2020-07-29,6358,1569
2020-07-30,6283,1575
2020-07-31,6359,1570
2020-08-01,6728,1582
2020-08-02,6765,1586
2020-08-03,6812,1594
2020-08-04,6789,1602
2020-08-05,6813,1605
2020-08-06,6855,1590
2020-08-07,6840,1564
2020-08-08,6814,1558
2020-08-09,6779,1563
2020-08-10,6677,1566
2020-08-11,6641,1549
2020-08-12,6641,1559
2020-08-13,6728,1589
2020-08-14,6716,1552
2020-08-15,6747,1471
2020-08-16,6742,1479
2020-08-17,6731,1488
2020-08-18,6714,1486
2020-08-19,6702,1490
2020-08-20,6611,1485
2020-08-21,6580,1484
2020-08-22,6577,1486
2020-08-23,6570,1483
2020-08-24,6512,1584
2020-08-25,6507,1597
2020-08-26,6483,1595
2020-08-27,6423,1597
2020-08-28,6413,1595
2020-08-29,6420,1597
2020-08-30,6401,1596
2020-08-31,6412,1605
2020-09-01,6779,1615
2020-09-02,6796,1608
2020-09-03,6829,1606
2020-09-04,6830,1639
2020-09-05,6830,1677
2020-09-07,6799,1558
2020-09-08,6771,1685
2020-09-09,6686,1686
2020-09-10,6641,1689
2020-09-11,6645,1688
2020-09-12,6624,1688
2020-09-13,6614,1695
2020-09-14,6594,1702
2020-09-15,6656,1702
2020-09-16,6695,1689
2020-09-17,6670,1697
2020-09-18,6679,1691
2020-09-19,6626,1689
2020-09-20,6438,1687
2020-09-21,6443,1689
2020-09-22,6454,1685
2020-09-23,6471,1630
2020-09-24,6476,1684
2020-09-25,6473,1676
2020-09-26,6454,1670
2020-09-27,6505,1664
2020-09-28,6489,1666
2020-09-29,6446,1596
2020-09-30,6472,1588
2020-10-01,6935,1595
2020-10-02,6991,1592
2020-10-03,7033,1587
2020-10-04,7043,1593
2020-10-05,7046,1598
2020-10-06,7038,1594
2020-10-07,7028,1602
2020-10-08,7031,1607
2020-10-09,7051,1600
2020-10-10,7024,1596
2020-10-11,6983,1597
2020-10-12,6965,1603
2020-10-13,6924,1601
2020-10-14,6925,1597
2020-10-15,6921,1593
2020-10-16,6892,1594
2020-10-17,6873,1601
2020-10-18,6878,1675
2020-10-19,6857,1672
2020-10-20,6800,1668
2020-10-21,6764,1663
2020-10-22,6728,1607
2020-10-23,6734,1614
2020-10-24,6734,1660
2020-10-25,6726,1654
2020-10-26,6728,1651
2020-10-27,6781,1649
2020-10-28,6788,1643
2020-10-29,6686,1643
2020-10-30,6680,1645
2020-10-31,6401,1591
2020-11-01,6775,1653
2020-11-02,6954,1660
2020-11-03,6807,1665
2020-11-04,6809,1668
2020-11-05,6876,1656
2020-11-06,6912,1654
2020-11-07,6911,1657
2020-11-08,6921,1663
2020-11-09,6880,1663
2020-11-10,6788,1660
2020-11-11,6796,1651
2020-11-12,6810,1649
2020-11-13,6798,1620
2020-11-14,6774,1584
2020-11-15,6782,1618
2020-11-16,6751,1622
2020-11-17,6727,1618
2020-11-18,6701,1619
2020-11-19,6695,1619
2020-11-20,6690,1621
2020-11-21,6682,1620
2020-11-22,6666,1618
2020-11-23,6655,1620
2020-11-24,6649,1624
2020-11-25,6663,1622
2020-11-26,6649,1617
2020-11-27,6657,1611
2020-11-28,6640,1616
2020-11-29,6640,1627
2020-11-30,6566,1629
2020-12-01,6879,1630
2020-12-02,6855,1646
2020-12-03,6885,1648
2020-12-04,6911,1642
2020-12-05,6909,1610
2020-12-06,6903,1607
2020-12-07,6873,1606
2020-12-08,6830,1607
2020-12-09,6802,1583
2020-12-10,6778,1571
2020-12-11,6796,1567
2020-12-12,6788,1571
2020-12-13,6782,1594
2020-12-14,6751,1653
2020-12-15,6720,1585
2020-12-16,6722,1569
2020-12-17,6716,1561
2020-12-18,6762,1555
2020-12-19,6713,1558
2020-12-20,6684,1561
2020-12-21,6738,1565
2020-12-22,6763,1562
2020-12-23,6810,1520
2020-12-24,6809,1475
2020-12-25,6848,1534
2020-12-26,6876,1535
2020-12-27,6892,1442
2020-12-28,6845,1442
2020-12-29,6794,1507
2020-12-30,6796,1552
2020-12-31,6788,1552
2021-01-01,7141,1557
2021-01-02,7195,1551
2021-01-03,7171,1552
2021-01-04,7118,1554
2021-01-05,7109,1555
2021-01-06,7154,1562
2021-01-07,7220,1569
2021-01-08,7226,1567
2021-01-09,7072,1563
2021-01-10,7053,1567
2021-01-11,7072,1564
2021-01-12,6858,1568
2021-01-13,6931,1571
2021-01-14,6899,1575
2021-01-15,6898,1570
2021-01-16,6900,1566
2021-01-17,6957,1564
2021-01-18,6959,1562
2021-01-19,6880,1564
2021-01-20,6803,1567
2021-01-21,6894,1570
2021-01-22,6793,1562
2021-01-23,6835,1563
2021-01-24,6870,1563
2021-01-25,6795,1559
2021-01-26,6803,1564
2021-01-27,6791,1558
2021-01-28,6772,1552
2021-01-29,6828,1553
2021-01-30,6856,1550
2021-01-31,6854,1550
2021-02-01,7221,1559
2021-02-02,7253,1564
2021-02-03,7221,1572
2021-02-04,7220,1569
2021-02-05,7142,1564
2021-02-06,7052,1560
2021-02-07,7047,1560
2021-02-08,7023,1563
2021-02-09,7019,1568
2021-02-10,6908,1570
2021-02-11,6764,1566
2021-02-12,6753,1563
2021-02-13,6709,1565
2021-02-14,6738,1561
2021-02-15,6720,1556
2021-02-16,6782,1557
2021-02-17,6756,1552
2021-02-18,6729,1562
2021-02-19,6636,1566
2021-02-20,6646,1565
2021-02-21,6688,1568
2021-02-22,6726,1567
2021-02-23,6661,1563
2021-02-24,6631,1565
2021-02-25,6632,1562
2021-02-26,6643,1565
2021-02-27,6668,1561
2021-02-28,6692,1559
2021-03-01,7065,1562
2021-03-02,7058,1559
2021-03-03,7062,1567
2021-03-04,7063,1562
2021-03-05,7044,1566
2021-03-06,7059,1565
2021-03-07,7031,1554
2021-03-08,7006,1555
2021-03-09,6952,1559
2021-03-10,6863,1548
2021-03-11,6871,1546
2021-03-12,6847,1544
2021-03-13,6800,1536
2021-03-14,6783,1532
2021-03-15,6751,1535
2021-03-16,6727,1535
2021-03-17,6701,1538
2021-03-18,6701,1541
2021-03-19,6660,1537
2021-03-20,6581,1533
2021-03-21,6565,1534
2021-03-22,6563,1530
2021-03-23,6550,1527
2021-03-24,6538,1529
2021-03-25,6533,1525
2021-03-26,6548,1535
2021-03-27,6556,1532
2021-03-28,6552,1534
2021-03-29,6515,1537
2021-03-30,6514,1536
2021-03-31,6517,1538
2021-04-01,6874,1550
2021-04-02,6884,1555
2021-04-03,6830,1542
2021-04-04,6819,1556
2021-04-05,6793,1560
2021-04-06,6749,1563
2021-04-07,6728,1563
2021-04-08,6698,1567
2021-04-09,6697,1555
2021-04-10,6638,1537
2021-04-11,6597,1529
2021-04-12,6615,1537
2021-04-13,6601,1537
2021-04-14,6591,1540
2021-04-15,6591,1532
2021-04-16,6578,1529
2021-04-17,6569,1514
2021-04-18,6619,1501
2021-04-19,6645,1528
2021-04-20,6635,1527
2021-04-21,6629,1526
2021-04-22,6535,1525
2021-04-23,6539,1518
2021-04-24,6528,1514
2021-04-25,6551,1513
2021-04-26,6574,1520
2021-04-27,6539,1521
2021-04-28,6521,1532
2021-04-29,6504,1528
2021-04-30,6500,1525
2021-05-01,6745,1523
2021-05-02,6745,1513
2021-05-03,6738,1514
2021-05-04,6776,1513
2021-05-05,6681,1516
2021-05-06,6643,1516
2021-05-07,6615,1511
2021-05-08,6589,1507
2021-05-09,6581,1507
2021-05-10,6519,1508
2021-05-11,6503,1503
2021-05-12,6532,1499
2021-05-13,6524,1494
2021-05-14,6527,1476
2021-05-15,6521,1479
2021-05-16,6513,1480
2021-05-17,6530,1486
2021-05-18,6519,1488
2021-05-19,6523,1491
2021-05-20,6521,1493
2021-05-21,6539,1491
2021-05-22,6539,1491
2021-05-23,6538,1495
2021-05-24,6569,1501
2021-05-25,6582,1500
2021-05-26,6557,1499
2021-05-27,6576,1492
2021-05-28,6550,1493
2021-05-29,6565,1489
2021-05-30,6562,1490
2021-05-31,6547,1484
2021-06-01,6802,1481
2021-06-02,6774,1475
2021-06-03,6765,1467
2021-06-04,6781,1469
2021-06-05,6774,1481
2021-06-06,6778,1479
2021-06-07,6762,1430
2021-06-08,6776,1436
2021-06-09,6770,1485
2021-06-10,6740,1477
2021-06-11,6735,1475
2021-06-12,6733,1472
2021-06-13,6632,1480
2021-06-14,6677,1476
2021-06-15,6656,1466
2021-06-16,6630,1467
2021-06-17,6647,1468
2021-06-18,6626,1467
2021-06-19,6590,1465
2021-06-20,6595,1457
2021-06-21,6584,1455
2021-06-22,6517,1459
2021-06-23,6555,1457
2021-06-24,6574,1453
2021-06-25,6586,1452
2021-06-26,6585,1452
2021-06-27,6580,1451
2021-06-28,6585,1447
2021-06-29,6578,1444
2021-06-30,6583,1444
2021-07-01,6825,1439
2021-07-02,6845,1437
2021-07-03,6857,1439
2021-07-04,6856,1448
2021-07-05,6874,1448
2021-07-06,6837,1449
2021-07-07,6794,1456
2021-07-08,6740,1455
2021-07-09,6727,1460
2021-07-10,6709,1461
2021-07-11,6695,1459
2021-07-12,6673,1468
2021-07-13,6653,1465
2021-07-14,6634,1463
2021-07-15,6633,1468
2021-07-16,6656,1472
2021-07-17,6684,1472
2021-07-18,6723,1461
2021-07-19,6722,1466
2021-07-20,6699,1465
2021-07-21,6675,1466
2021-07-22,6662,1469
2021-07-23,6662,1469
2021-07-24,6665,1417
2021-07-25,6651,1419
2021-07-26,6664,1424
2021-07-27,6656,1432
2021-07-28,6653,1450
2021-07-29,6663,1450
2021-07-30,6676,1447
2021-07-31,6647,1442
2021-08-01,6897,1456
2021-08-02,6932,1458
2021-08-03,6956,1455
2021-08-04,6962,1455
2021-08-05,6961,1456
2021-08-06,6970,1395
2021-08-07,6921,1455
2021-08-08,6895,1391
2021-08-09,6901,1394
2021-08-10,6886,1393
2021-08-11,6865,1391
2021-08-12,6799,1389
2021-08-13,6789,1377
2021-08-14,6794,1373
2021-08-15,6810,1363
2021-08-16,6824,1365
2021-08-17,6818,1367
2021-08-18,6799,1366
2021-08-19,6759,1368
2021-08-20,6707,1361
2021-08-21,6699,1362
2021-08-22,6760,1366
2021-08-23,6803,1368
2021-08-24,6811,1362
2021-08-25,6766,1361
2021-08-26,6772,1364
2021-08-27,6758,1400
2021-08-28,6752,1425
2021-08-29,6746,1429
2021-08-30,6719,1430
2021-08-31,6709,1431
2021-09-01,6998,1445
2021-09-02,7038,1449
2021-09-03,7036,1448
2021-09-04,7041,1382
2021-09-05,7062,1365
2021-09-06,7045,1366
2021-09-07,6996,1371
2021-09-08,6981,1372
2021-09-09,6958,1373
2021-09-10,6920,1358
2021-09-11,6829,1302
2021-09-12,6864,1301
2021-09-13,6831,1303
2021-09-14,6822,1296
2021-09-15,6804,1260
2021-09-16,6789,1213
2021-09-17,6801,1219
2021-09-18,6802,1210
2021-09-19,6778,1210
2021-09-20,6839,1219
2021-09-21,6844,1224
2021-09-22,6834,1229
2021-09-23,6848,1234
2021-09-24,6839,1231
2021-09-25,6776,1232
2021-09-26,6759,1230
2021-09-27,6760,1230
2021-09-28,6723,1236
2021-09-29,6693,1238
2021-09-30,6658,1231
2021-10-01,6961,1241
2021-10-02,6974,1243
2021-10-03,6987,1246
2021-10-04,6917,1248
2021-10-05,6866,1250
2021-10-06,6810,1256
2021-10-07,6733,1257
2021-10-08,6686,1255
2021-10-09,6621,1260
2021-10-10,6687,1265
2021-10-11,6692,1257
2021-10-12,6679,1262
2021-10-13,6640,1258
2021-10-14,6646,1253
2021-10-15,6624,1248
2021-10-16,6544,1244
2021-10-17,6557,1245
2021-10-18,6545,1246
2021-10-19,6542,1245
2021-10-20,6525,1238
2021-10-21,6455,1237
2021-10-22,6438,1239
2021-10-23,6405,1245
2021-10-24,6393,1243
2021-10-25,6355,1246
2021-10-26,6316,1245
2021-10-27,6310,1240
2021-10-28,6300,1250
2021-10-29,6239,1255
2021-10-30,6172,1258
2021-10-31,6146,1256
2021-11-01,6635,1262
2021-11-02,6696,1266
2021-11-03,6672,1266
2021-11-04,6683,1262
2021-11-05,6660,1259
2021-11-06,6622,1263
2021-11-07,6578,1261
2021-11-08,6439,1255
2021-11-09,6051,1249
2021-11-10,6041,1243
2021-11-11,6041,1250
2021-11-12,6061,1254
2021-11-13,6085,1258
2021-11-14,6118,1258
2021-11-15,6171,1256
2021-11-16,6213,1255
2021-11-17,6249,1252
2021-11-18,6253,1252
2021-11-19,6252,1255
2021-11-20,6256,1270
2021-11-21,6283,1301
2021-11-22,6288,1333
2021-11-23,6311,1377
2021-11-24,6316,1411
2021-11-25,6311,1433
2021-11-26,6337,1450
